[gd_scene load_steps=7 format=2]

[ext_resource path="res://assets/messages.png" type="Texture" id=1]
[ext_resource path="res://objects/Collectable.gd" type="Script" id=2]
[ext_resource path="res://assets/sounds/collect.ogg" type="AudioStream" id=3]

[sub_resource type="CircleShape2D" id=1]
radius = 26.0192

[sub_resource type="Animation" id=2]
resource_name = "Collect"
length = 0.4
tracks/0/type = "value"
tracks/0/path = NodePath("Sprite:scale")
tracks/0/interp = 1
tracks/0/loop_wrap = true
tracks/0/imported = false
tracks/0/enabled = true
tracks/0/keys = {
"times": PoolRealArray( 0, 0.3 ),
"transitions": PoolRealArray( 1, 0.4 ),
"update": 0,
"values": [ Vector2( 1, 1 ), Vector2( 0, 0 ) ]
}
tracks/1/type = "value"
tracks/1/path = NodePath("Sprite:position")
tracks/1/interp = 1
tracks/1/loop_wrap = true
tracks/1/imported = false
tracks/1/enabled = true
tracks/1/keys = {
"times": PoolRealArray( 0, 0.3 ),
"transitions": PoolRealArray( 1, 0.4 ),
"update": 0,
"values": [ Vector2( 0, 0 ), Vector2( 0, -25 ) ]
}

[sub_resource type="Animation" id=3]
loop = true
tracks/0/type = "value"
tracks/0/path = NodePath("Sprite:scale")
tracks/0/interp = 1
tracks/0/loop_wrap = true
tracks/0/imported = false
tracks/0/enabled = true
tracks/0/keys = {
"times": PoolRealArray( 0, 0.4, 0.8 ),
"transitions": PoolRealArray( 0.406126, 0.659753, 1.8025 ),
"update": 0,
"values": [ Vector2( 1, 1 ), Vector2( 1.1, 0.75 ), Vector2( 0.8, 1.05 ) ]
}
tracks/1/type = "value"
tracks/1/path = NodePath("Sprite:position")
tracks/1/interp = 1
tracks/1/loop_wrap = true
tracks/1/imported = false
tracks/1/enabled = true
tracks/1/keys = {
"times": PoolRealArray( 0, 0.4 ),
"transitions": PoolRealArray( 1, 1 ),
"update": 0,
"values": [ Vector2( 0, 0 ), Vector2( 0, -10 ) ]
}

[node name="Collectable" type="Area2D"]
monitorable = false
collision_layer = 2147483648
collision_mask = 2
script = ExtResource( 2 )

[node name="Sprite" type="Sprite" parent="."]
texture = ExtResource( 1 )
region_enabled = true
region_rect = Rect2( 64, 128, 64, 64 )

[node name="CollisionShape2D" type="CollisionShape2D" parent="."]
shape = SubResource( 1 )

[node name="AnimationPlayer" type="AnimationPlayer" parent="."]
autoplay = "Idle"
anims/Collect = SubResource( 2 )
anims/Idle = SubResource( 3 )

[node name="AudioStreamPlayer" type="AudioStreamPlayer" parent="."]
stream = ExtResource( 3 )
bus = "SoundFX"
[connection signal="body_entered" from="." to="." method="_on_Collectable_body_entered"]
