[gd_scene load_steps=7 format=2]

[ext_resource path="res://assets/tileset-old-master.tres" type="TileSet" id=1]
[ext_resource path="res://objects/Portal.tscn" type="PackedScene" id=2]
[ext_resource path="res://objects/Collectable.tscn" type="PackedScene" id=3]
[ext_resource path="res://actors/Spider.tscn" type="PackedScene" id=4]
[ext_resource path="res://maps/Level6.tscn" type="PackedScene" id=5]
[ext_resource path="res://objects/Checkpoint.tscn" type="PackedScene" id=6]

[node name="TestMap1" type="Node2D"]

[node name="TileMap" type="TileMap" parent="."]
tile_set = ExtResource( 1 )
format = 1
tile_data = PoolIntArray( -4587521, 1, 65537, -4653056, 1, 65537, -4653055, 1, 65537, -4653054, 1, 65537, -4653053, 1, 65537, -4653052, 1, 65537, -4653051, 1, 65537, -4653050, 1, 65537, -4653049, 1, 65537, -4653048, 1, 65537, -4653047, 1, 65537, -4653046, 1, 65537, -4653045, 1, 65537, -4653044, 1, 65537, -4653043, 1, 65537, -4653042, 1, 65537, -4653041, 1, 65537, -4653040, 1, 65537, -4653039, 1, 65537, -4653038, 1, 65537, -4653037, 1, 65537, -4653036, 1, 65537, -4653035, 1, 65537, -4653034, 1, 65537, -4653033, 1, 65537, -4653032, 1, 65537, -4653031, 1, 65537, -4653030, 1, 65537, -4653029, 1, 65537, -4653028, 1, 65537, -4653027, 1, 65537, -4653026, 1, 65537, -4653025, 1, 65537, -4653024, 1, 65537, -4653023, 1, 65537, -4653022, 1, 65537, -4653021, 1, 65537, -4653020, 1, 65537, -4653019, 1, 65537, -4653018, 1, 65537, -4653017, 1, 65537, -4653016, 1, 65537, -4653015, 1, 65537, -4653014, 1, 65537, -4653013, 1, 65537, -4653012, 1, 65537, -4653011, 1, 65537, -4653010, 1, 65537, -4653009, 1, 65537, -4653008, 1, 65537, -4653007, 1, 65537, -4653006, 1, 65537, -4653005, 1, 65537, -4653004, 1, 65537, -4653003, 1, 65537, -4653002, 1, 65537, -4653001, 1, 65537, -4653000, 1, 65537, -4652999, 1, 65537, -4652998, 1, 65537, -4652997, 1, 65537, -4652996, 1, 65537, -4652995, 1, 65537, -4652994, 1, 65537, -4652993, 1, 65537, -4652992, 1, 65537, -4652991, 1, 65537, -4652990, 1, 65537, -4652989, 1, 65537, -4652988, 1, 65537, -4652987, 1, 65537, -4652986, 1, 65537, -4652985, 1, 65537, -4652984, 1, 65537, -4652983, 1, 65537, -4652982, 1, 65537, -4652981, 1, 65537, -4652980, 1, 65537, -4652979, 1, 65537, -4652978, 1, 65537, -4652977, 1, 65537, -4652976, 1, 65537, -4521985, 2, 0, -4587520, 1, 65537, -4587513, 1, 65537, -4587512, 1, 65537, -4587511, 1, 65537, -4587510, 1, 65537, -4587509, 1, 65537, -4587508, 1, 65537, -4587507, 1, 65537, -4587506, 1, 65537, -4587505, 1, 65537, -4587504, 1, 65537, -4587503, 1, 65537, -4587502, 1, 65537, -4587501, 1, 65537, -4587500, 1, 65537, -4587499, 1, 65537, -4587498, 1, 65537, -4587497, 1, 65537, -4587496, 1, 65537, -4587495, 1, 65537, -4587494, 1, 65537, -4587493, 1, 65537, -4587492, 1, 65537, -4587491, 1, 65537, -4587490, 1, 65537, -4587489, 1, 65537, -4587488, 1, 65537, -4587487, 1, 65537, -4587486, 1, 65537, -4587485, 1, 65537, -4587481, 1, 65537, -4587480, 1, 65537, -4587479, 1, 65537, -4587478, 1, 65537, -4587477, 1, 65537, -4587476, 1, 65537, -4587475, 1, 65537, -4587474, 1, 65537, -4587473, 1, 65537, -4587472, 1, 65537, -4587471, 1, 65537, -4587462, 1, 65537, -4587461, 1, 65537, -4587455, 1, 65537, -4587454, 1, 65537, -4587453, 1, 65537, -4587452, 1, 65537, -4587451, 1, 65537, -4587450, 1, 65537, -4587449, 1, 65537, -4587448, 1, 65537, -4587447, 1, 65537, -4587446, 1, 65537, -4587445, 1, 65537, -4587444, 1, 65537, -4587443, 1, 65537, -4587442, 1, 65537, -4587441, 1, 65537, -4587440, 1, 65537, -4456449, 2, 0, -4521984, 1, 65537, -4521976, 1, 65537, -4521975, 1, 65537, -4521974, 1, 65537, -4521973, 1, 65537, -4521972, 1, 65537, -4521971, 1, 65537, -4521970, 1, 65537, -4521969, 1, 65537, -4521968, 1, 65537, -4521967, 1, 65537, -4521966, 1, 65537, -4521965, 1, 65537, -4521964, 1, 65537, -4521963, 1, 65537, -4521955, 1, 65537, -4521954, 1, 65537, -4521953, 1, 65537, -4521952, 1, 65537, -4521951, 1, 65537, -4521950, 1, 65537, -4521942, 1, 65537, -4521941, 1, 65537, -4521940, 1, 65537, -4521939, 1, 65537, -4521938, 1, 65537, -4521926, 1, 65537, -4521925, 1, 65537, -4521919, 1, 65537, -4521918, 1, 65537, -4521917, 1, 65537, -4521916, 1, 65537, -4521915, 1, 65537, -4521914, 1, 65537, -4521913, 1, 65537, -4521912, 1, 65537, -4521911, 1, 65537, -4521910, 1, 65537, -4521909, 1, 65537, -4521908, 1, 65537, -4521907, 1, 65537, -4521906, 1, 65537, -4521905, 1, 65537, -4521904, 1, 65537, -4390913, 2, 0, -4456448, 1, 65537, -4456439, 1, 65537, -4456438, 1, 65537, -4456437, 1, 65537, -4456436, 1, 65537, -4456435, 1, 65537, -4456434, 1, 65537, -4456433, 1, 65537, -4456432, 1, 65537, -4456431, 1, 65537, -4456430, 1, 65537, -4456429, 1, 65537, -4456428, 1, 65537, -4456427, 1, 65537, -4456419, 1, 65537, -4456418, 1, 65537, -4456417, 1, 65537, -4456416, 1, 65537, -4456415, 1, 65537, -4456405, 1, 65537, -4456404, 1, 65537, -4456403, 1, 65537, -4456390, 1, 65537, -4456385, 1, 65537, -4456384, 1, 65537, -4456383, 1, 65537, -4456382, 1, 65537, -4456381, 1, 65537, -4456380, 1, 65537, -4456379, 1, 65537, -4456378, 1, 65537, -4456377, 1, 65537, -4456376, 1, 65537, -4456375, 1, 65537, -4456374, 1, 65537, -4456373, 1, 65537, -4456372, 1, 65537, -4456371, 1, 65537, -4456370, 1, 65537, -4456369, 1, 65537, -4456368, 1, 65537, -4325377, 2, 0, -4390912, 1, 65537, -4390898, 1, 65537, -4390897, 1, 65537, -4390896, 1, 65537, -4390895, 1, 65537, -4390894, 1, 65537, -4390893, 1, 65537, -4390892, 1, 65537, -4390891, 1, 65537, -4390890, 1, 65537, -4390889, 1, 65537, -4390888, 1, 65537, -4390887, 1, 65537, -4390886, 1, 65537, -4390885, 1, 65537, -4390882, 1, 65537, -4390881, 1, 65537, -4390880, 1, 65537, -4390879, 1, 65537, -4390858, 0, 196608, -4390857, 0, 1, -4390856, 0, 1, -4390855, 0, 1, -4390854, 1, 65537, -4390853, 1, 65537, -4390852, 1, 65537, -4390851, 1, 65537, -4390850, 1, 65537, -4390849, 1, 65537, -4390848, 1, 65537, -4390847, 1, 65537, -4390846, 1, 65537, -4390845, 1, 65537, -4390844, 1, 65537, -4390843, 1, 65537, -4390842, 1, 65537, -4390841, 1, 65537, -4390840, 1, 65537, -4390839, 1, 65537, -4390838, 1, 65537, -4390837, 1, 65537, -4390836, 1, 65537, -4390835, 1, 65537, -4390834, 1, 65537, -4390833, 1, 65537, -4390832, 1, 65537, -4390831, 1, 65537, -4259841, 2, 0, -4325376, 1, 65537, -4325360, 1, 65537, -4325359, 1, 65537, -4325358, 1, 65537, -4325357, 1, 65537, -4325356, 1, 65537, -4325346, 1, 65537, -4325345, 1, 65537, -4325343, 1, 65537, -4325342, 1, 65537, -4325341, 1, 65537, -4325321, 1, 65537, -4325320, 1, 65537, -4325319, 1, 65537, -4325318, 1, 65537, -4325317, 1, 65537, -4325316, 1, 65537, -4325315, 1, 65537, -4325314, 1, 65537, -4325313, 1, 65537, -4325312, 1, 65537, -4325311, 1, 65537, -4325310, 1, 65537, -4325309, 1, 65537, -4325308, 1, 65537, -4325307, 1, 65537, -4325306, 1, 65537, -4325305, 1, 65537, -4325304, 1, 65537, -4325303, 1, 65537, -4325302, 1, 65537, -4325301, 1, 65537, -4325300, 1, 65537, -4325299, 1, 65537, -4325298, 1, 65537, -4325297, 1, 65537, -4325296, 1, 65537, -4325295, 1, 65537, -4194305, 2, 0, -4259840, 1, 65537, -4259823, 1, 65537, -4259822, 1, 65537, -4259821, 1, 65537, -4259810, 1, 65537, -4259805, 1, 65537, -4259804, 1, 65537, -4259785, 1, 65537, -4259784, 1, 65537, -4259783, 1, 65537, -4259782, 1, 65537, -4259781, 1, 65537, -4259780, 1, 65537, -4259779, 1, 65537, -4259778, 1, 65537, -4259777, 1, 65537, -4259776, 1, 65537, -4259775, 1, 65537, -4259774, 1, 65537, -4259773, 1, 65537, -4259772, 1, 65537, -4259771, 1, 65537, -4259770, 1, 65537, -4259769, 1, 65537, -4259768, 1, 65537, -4259767, 1, 65537, -4259766, 1, 65537, -4259765, 1, 65537, -4259764, 1, 65537, -4259763, 1, 65537, -4259762, 1, 65537, -4259761, 1, 65537, -4259760, 1, 65537, -4259759, 1, 65537, -4259758, 1, 65537, -4128769, 2, 0, -4194304, 1, 65537, -4194285, 1, 65537, -4194284, 1, 65537, -4194283, 1, 65537, -4194275, 1, 65537, -4194268, 1, 65537, -4194248, 1, 65537, -4194247, 1, 65537, -4194246, 1, 65537, -4194245, 1, 65537, -4194244, 1, 65537, -4194243, 1, 65537, -4194242, 1, 65537, -4194241, 1, 65537, -4194240, 1, 65537, -4194239, 1, 65537, -4194238, 1, 65537, -4194237, 1, 65537, -4194236, 1, 65537, -4194235, 1, 65537, -4194234, 1, 65537, -4194233, 1, 65537, -4194232, 1, 65537, -4194231, 1, 65537, -4194230, 1, 65537, -4194229, 1, 65537, -4194228, 1, 65537, -4194227, 1, 65537, -4194226, 1, 65537, -4194225, 1, 65537, -4194224, 1, 65537, -4194223, 1, 65537, -4194222, 1, 65537, -4063233, 2, 0, -4128768, 1, 65537, -4128747, 1, 65537, -4128746, 1, 65537, -4128741, 1, 65537, -4128740, 1, 65537, -4128739, 1, 65537, -4128738, 1, 65537, -4128737, 1, 65537, -4128736, 1, 65537, -4128732, 1, 65537, -4128710, 1, 65537, -4128709, 1, 65537, -4128708, 1, 65537, -4128707, 1, 65537, -4128706, 1, 65537, -4128705, 1, 65537, -4128704, 1, 65537, -4128703, 1, 65537, -4128702, 1, 65537, -4128701, 1, 65537, -4128700, 1, 65537, -4128699, 1, 65537, -4128698, 1, 65537, -4128697, 1, 65537, -4128696, 1, 65537, -4128695, 1, 65537, -4128694, 1, 65537, -4128693, 1, 65537, -4128692, 1, 65537, -4128691, 1, 65537, -4128690, 1, 65537, -4128689, 1, 65537, -4128688, 1, 65537, -4128687, 1, 65537, -4128686, 1, 65537, -4128685, 1, 65537, -3997697, 2, 0, -4063232, 1, 65537, -4063210, 1, 65537, -4063209, 1, 65537, -4063208, 1, 65537, -4063207, 1, 65537, -4063206, 1, 65537, -4063205, 1, 65537, -4063196, 1, 65537, -4063182, 0, 196608, -4063181, 0, 196609, -4063180, 0, 196609, -4063179, 0, 196610, -4063175, 1, 65537, -4063174, 1, 65537, -4063173, 1, 65537, -4063172, 1, 65537, -4063171, 1, 65537, -4063170, 1, 65537, -4063169, 1, 65537, -4063168, 1, 65537, -4063167, 1, 65537, -4063166, 1, 65537, -4063165, 1, 65537, -4063164, 1, 65537, -4063163, 1, 65537, -4063162, 1, 65537, -4063161, 1, 65537, -4063160, 1, 65537, -4063159, 1, 65537, -4063158, 1, 65537, -4063157, 1, 65537, -4063156, 1, 65537, -4063155, 1, 65537, -4063154, 1, 65537, -4063153, 1, 65537, -4063152, 1, 65537, -4063151, 1, 65537, -4063150, 1, 65537, -4063149, 1, 65537, -3932161, 2, 0, -3997696, 1, 65537, -3997676, 1, 65537, -3997675, 1, 65537, -3997674, 1, 65537, -3997673, 1, 65537, -3997672, 1, 65537, -3997671, 1, 65537, -3997669, 1, 65537, -3997668, 1, 65537, -3997665, 1, 65537, -3997664, 1, 65537, -3997663, 1, 65537, -3997662, 1, 65537, -3997660, 1, 65537, -3997639, 1, 65537, -3997638, 1, 65537, -3997637, 1, 65537, -3997636, 1, 65537, -3997635, 1, 65537, -3997634, 1, 65537, -3997633, 1, 65537, -3997632, 1, 65537, -3997631, 1, 65537, -3997630, 1, 65537, -3997629, 1, 65537, -3997628, 1, 65537, -3997627, 1, 65537, -3997626, 1, 65537, -3997625, 1, 65537, -3997624, 1, 65537, -3997623, 1, 65537, -3997622, 1, 65537, -3997621, 1, 65537, -3997620, 1, 65537, -3997619, 1, 65537, -3997618, 1, 65537, -3997617, 1, 65537, -3997616, 1, 65537, -3997615, 1, 65537, -3997614, 1, 65537, -3997613, 1, 65537, -3866625, 2, 0, -3932160, 1, 65537, -3932140, 1, 65537, -3932138, 1, 65537, -3932137, 1, 65537, -3932136, 1, 65537, -3932135, 1, 65537, -3932132, 1, 65537, -3932125, 1, 65537, -3932102, 1, 65537, -3932101, 1, 65537, -3932100, 1, 65537, -3932099, 1, 65537, -3932098, 1, 65537, -3932097, 1, 65537, -3932096, 1, 65537, -3932095, 1, 65537, -3932094, 1, 65537, -3932093, 1, 65537, -3932092, 1, 65537, -3932091, 1, 65537, -3932090, 1, 65537, -3932089, 1, 65537, -3932088, 1, 65537, -3932087, 1, 65537, -3932086, 1, 65537, -3932085, 1, 65537, -3932084, 1, 65537, -3932083, 1, 65537, -3932082, 1, 65537, -3932081, 1, 65537, -3932080, 1, 65537, -3932079, 1, 65537, -3932078, 1, 65537, -3932077, 1, 65537, -3801089, 2, 0, -3866624, 1, 65537, -3866605, 1, 65537, -3866602, 1, 65537, -3866601, 1, 65537, -3866600, 1, 65537, -3866596, 1, 65537, -3866595, 1, 65537, -3866594, 1, 65537, -3866589, 1, 65537, -3866586, 0, 0, -3866585, 0, 1, -3866584, 0, 196609, -3866583, 0, 196609, -3866582, 0, 196609, -3866581, 0, 196609, -3866580, 0, 196610, -3866566, 1, 65537, -3866562, 1, 65537, -3866561, 1, 65537, -3866560, 1, 65537, -3866559, 1, 65537, -3866558, 1, 65537, -3866557, 1, 65537, -3866556, 1, 65537, -3866555, 1, 65537, -3866554, 1, 65537, -3866553, 1, 65537, -3866552, 1, 65537, -3866551, 1, 65537, -3866550, 1, 65537, -3866549, 1, 65537, -3866548, 1, 65537, -3866547, 1, 65537, -3866546, 1, 65537, -3866545, 1, 65537, -3866544, 1, 65537, -3866543, 1, 65537, -3866542, 1, 65537, -3866541, 1, 65537, -3866540, 1, 65537, -3735553, 2, 0, -3801088, 1, 65537, -3801071, 1, 65537, -3801070, 1, 65537, -3801069, 1, 65537, -3801066, 1, 65537, -3801065, 1, 65537, -3801064, 1, 65537, -3801058, 1, 65537, -3801057, 1, 65537, -3801052, 1, 65537, -3801051, 1, 65537, -3801050, 1, 65537, -3801049, 1, 65537, -3801030, 1, 65537, -3801025, 1, 65537, -3801024, 1, 65537, -3801023, 1, 65537, -3801022, 1, 65537, -3801021, 1, 65537, -3801020, 1, 65537, -3801019, 1, 65537, -3801018, 1, 65537, -3801017, 1, 65537, -3801016, 1, 65537, -3801015, 1, 65537, -3801014, 1, 65537, -3801013, 1, 65537, -3801012, 1, 65537, -3801011, 1, 65537, -3801010, 1, 65537, -3801009, 1, 65537, -3801008, 1, 65537, -3801007, 1, 65537, -3801006, 1, 65537, -3801005, 1, 65537, -3801004, 1, 65537, -3670017, 2, 0, -3735552, 1, 65537, -3735536, 1, 65537, -3735535, 1, 65537, -3735530, 1, 65537, -3735529, 1, 65537, -3735528, 1, 65537, -3735521, 1, 65537, -3735520, 1, 65537, -3735519, 1, 65537, -3735518, 1, 65537, -3735517, 1, 65537, -3735516, 1, 65537, -3735515, 1, 65537, -3735514, 1, 65537, -3735513, 1, 65537, -3735501, 0, 196608, -3735500, 0, 196609, -3735499, 0, 196609, -3735498, 0, 196610, -3735495, 1, 65537, -3735494, 1, 65537, -3735493, 1, 65537, -3735492, 1, 65537, -3735491, 1, 65537, -3735490, 1, 65537, -3735489, 1, 65537, -3735488, 1, 65537, -3735487, 1, 65537, -3735486, 1, 65537, -3735485, 1, 65537, -3735484, 1, 65537, -3735483, 1, 65537, -3735482, 1, 65537, -3735481, 1, 65537, -3735480, 1, 65537, -3735479, 1, 65537, -3735478, 1, 65537, -3735477, 1, 65537, -3735476, 1, 65537, -3735475, 1, 65537, -3735474, 1, 65537, -3735473, 1, 65537, -3735472, 1, 65537, -3735471, 1, 65537, -3735470, 1, 65537, -3735469, 1, 65537, -3735468, 1, 65537, -3604481, 2, 0, -3670016, 1, 65537, -3670000, 1, 65537, -3669994, 1, 65537, -3669993, 1, 65537, -3669958, 0, 65537, -3669957, 1, 65537, -3669956, 1, 65537, -3669955, 1, 65537, -3669954, 1, 65537, -3669953, 1, 65537, -3669952, 1, 65537, -3669951, 1, 65537, -3669950, 1, 65537, -3669949, 1, 65537, -3669948, 1, 65537, -3669947, 1, 65537, -3669946, 1, 65537, -3669945, 1, 65537, -3669944, 1, 65537, -3669943, 1, 65537, -3669942, 1, 65537, -3669941, 1, 65537, -3669940, 1, 65537, -3669939, 1, 65537, -3669938, 1, 65537, -3669937, 1, 65537, -3669936, 1, 65537, -3669935, 1, 65537, -3669934, 1, 65537, -3669933, 1, 65537, -3669932, 1, 65537, -3669931, 1, 65537, -3538945, 2, 0, -3604480, 1, 65537, -3604465, 1, 65537, -3604464, 1, 65537, -3604458, 1, 65537, -3604457, 1, 65537, -3604422, 0, 65537, -3604421, 1, 65537, -3604420, 1, 65537, -3604419, 1, 65537, -3604418, 1, 65537, -3604417, 1, 65537, -3604416, 1, 65537, -3604415, 1, 65537, -3604414, 1, 65537, -3604413, 1, 65537, -3604412, 1, 65537, -3604411, 1, 65537, -3604410, 1, 65537, -3604409, 1, 65537, -3604408, 1, 65537, -3604407, 1, 65537, -3604406, 1, 65537, -3604405, 1, 65537, -3604404, 1, 65537, -3604403, 1, 65537, -3604402, 1, 65537, -3604401, 1, 65537, -3604400, 1, 65537, -3604399, 1, 65537, -3604398, 1, 65537, -3604397, 1, 65537, -3604396, 1, 65537, -3604395, 1, 65537, -3473409, 2, 0, -3538944, 1, 65537, -3538943, 1, 65537, -3538942, 1, 65537, -3538941, 1, 65537, -3538940, 1, 65537, -3538939, 1, 65537, -3538938, 1, 65537, -3538937, 1, 65537, -3538936, 1, 65537, -3538935, 1, 65537, -3538934, 1, 65537, -3538933, 1, 65537, -3538932, 1, 65537, -3538931, 1, 65537, -3538930, 1, 65537, -3538929, 1, 65537, -3538922, 1, 65537, -3538887, 0, 0, -3538886, 0, 65542, -3538885, 1, 65537, -3538884, 1, 65537, -3538883, 1, 65537, -3538882, 1, 65537, -3538881, 1, 65537, -3538880, 1, 65537, -3538879, 1, 65537, -3538878, 1, 65537, -3538877, 1, 65537, -3538876, 1, 65537, -3538875, 1, 65537, -3538874, 1, 65537, -3538873, 1, 65537, -3538872, 1, 65537, -3538871, 1, 65537, -3538870, 1, 65537, -3538869, 1, 65537, -3538868, 1, 65537, -3538867, 1, 65537, -3538866, 1, 65537, -3538865, 1, 65537, -3538864, 1, 65537, -3538863, 1, 65537, -3538862, 1, 65537, -3538861, 1, 65537, -3538860, 1, 65537, -3538859, 1, 65537, -3538858, 1, 65537, -3407873, 2, 0, -3473408, 1, 65537, -3473361, 0, 196608, -3473360, 0, 196609, -3473359, 0, 196609, -3473358, 0, 196609, -3473357, 0, 196609, -3473356, 0, 196609, -3473355, 0, 196609, -3473354, 0, 196609, -3473353, 0, 196609, -3473352, 0, 196609, -3473351, 0, 131073, -3473350, 1, 65537, -3473349, 1, 65537, -3473348, 1, 65537, -3473347, 1, 65537, -3473346, 1, 65537, -3473345, 1, 65537, -3473344, 1, 65537, -3473343, 1, 65537, -3473342, 1, 65537, -3473341, 1, 65537, -3473340, 1, 65537, -3473339, 1, 65537, -3473338, 1, 65537, -3473337, 1, 65537, -3473336, 1, 65537, -3473335, 1, 65537, -3473334, 1, 65537, -3473333, 1, 65537, -3473332, 1, 65537, -3473331, 1, 65537, -3473330, 1, 65537, -3473329, 1, 65537, -3473328, 1, 65537, -3473327, 1, 65537, -3473326, 1, 65537, -3473325, 1, 65537, -3473324, 1, 65537, -3473323, 1, 65537, -3473322, 1, 65537, -3342337, 2, 0, -3407872, 1, 65537, -3407814, 1, 65537, -3407813, 1, 65537, -3407812, 1, 65537, -3407811, 1, 65537, -3407810, 1, 65537, -3407809, 1, 65537, -3407808, 1, 65537, -3407807, 1, 65537, -3407806, 1, 65537, -3407805, 1, 65537, -3407804, 1, 65537, -3407803, 1, 65537, -3407802, 1, 65537, -3407801, 1, 65537, -3407800, 1, 65537, -3407799, 1, 65537, -3407798, 1, 65537, -3407797, 1, 65537, -3407796, 1, 65537, -3407795, 1, 65537, -3407794, 1, 65537, -3407793, 1, 65537, -3407792, 1, 65537, -3407791, 1, 65537, -3407790, 1, 65537, -3407789, 1, 65537, -3407788, 1, 65537, -3407787, 1, 65537, -3407786, 1, 65537, -3276801, 2, 0, -3342336, 1, 65537, -3342319, 0, 196608, -3342318, 0, 1, -3342317, 0, 196610, -3342288, 1, 65537, -3342287, 1, 65537, -3342286, 1, 65537, -3342285, 1, 65537, -3342284, 1, 65537, -3342283, 1, 65537, -3342282, 1, 65537, -3342281, 1, 65537, -3342280, 1, 65537, -3342279, 1, 65537, -3342278, 1, 65537, -3342277, 1, 65537, -3342276, 1, 65537, -3342275, 1, 65537, -3342274, 1, 65537, -3342273, 1, 65537, -3342272, 1, 65537, -3342271, 1, 65537, -3342270, 1, 65537, -3342269, 1, 65537, -3342268, 1, 65537, -3342267, 1, 65537, -3342266, 1, 65537, -3342265, 1, 65537, -3342264, 1, 65537, -3342263, 1, 65537, -3342262, 1, 65537, -3342261, 1, 65537, -3342260, 1, 65537, -3342259, 1, 65537, -3342258, 1, 65537, -3342257, 1, 65537, -3342256, 1, 65537, -3342255, 1, 65537, -3342254, 1, 65537, -3342253, 1, 65537, -3342252, 1, 65537, -3342251, 1, 65537, -3342250, 1, 65537, -3211265, 2, 0, -3276800, 1, 65537, -3276782, 1, 1, -3276753, 1, 65537, -3276744, 1, 65537, -3276743, 1, 65537, -3276742, 1, 65537, -3276741, 1, 65537, -3276740, 1, 65537, -3276739, 1, 65537, -3276738, 1, 65537, -3276737, 1, 65537, -3276736, 1, 65537, -3276735, 1, 65537, -3276734, 1, 65537, -3276733, 1, 65537, -3276732, 1, 65537, -3276731, 1, 65537, -3276730, 1, 65537, -3276729, 1, 65537, -3276728, 1, 65537, -3276727, 1, 65537, -3276726, 1, 65537, -3276725, 1, 65537, -3276724, 1, 65537, -3276723, 1, 65537, -3276722, 1, 65537, -3276721, 1, 65537, -3276720, 1, 65537, -3276719, 1, 65537, -3276718, 1, 65537, -3276717, 1, 65537, -3276716, 1, 65537, -3276715, 1, 65537, -3276714, 1, 65537, -3276713, 1, 65537, -3145729, 2, 0, -3211264, 1, 65537, -3211246, 1, 65537, -3211245, 1, 65537, -3211244, 1, 65537, -3211243, 1, 65537, -3211242, 1, 65537, -3211241, 1, 65537, -3211240, 1, 65537, -3211218, 1, 65537, -3211217, 1, 65537, -3211216, 1, 65537, -3211215, 1, 65537, -3211214, 1, 65537, -3211213, 1, 65537, -3211212, 1, 65537, -3211211, 1, 65537, -3211210, 1, 65537, -3211209, 1, 65537, -3211208, 1, 65537, -3211207, 1, 65537, -3211206, 1, 65537, -3211205, 1, 65537, -3211204, 1, 65537, -3211203, 1, 65537, -3211202, 1, 65537, -3211201, 1, 65537, -3211200, 1, 65537, -3211199, 1, 65537, -3211198, 1, 65537, -3211197, 1, 65537, -3211196, 1, 65537, -3211195, 1, 65537, -3211194, 1, 65537, -3211193, 1, 65537, -3211192, 1, 65537, -3211191, 1, 65537, -3211190, 1, 65537, -3211189, 1, 65537, -3211188, 1, 65537, -3211187, 1, 65537, -3211186, 1, 65537, -3211185, 1, 65537, -3211184, 1, 65537, -3211183, 1, 65537, -3211182, 1, 65537, -3211181, 1, 65537, -3211180, 1, 65537, -3211179, 1, 65537, -3211178, 1, 65537, -3211177, 1, 65537, -3080193, 2, 0, -3145728, 1, 65537, -3145727, 1, 65537, -3145682, 1, 65537, -3145681, 1, 65537, -3145680, 1, 65537, -3145679, 1, 65537, -3145678, 1, 65537, -3145677, 1, 65537, -3145676, 1, 65537, -3145675, 1, 65537, -3145674, 1, 65537, -3145673, 1, 65537, -3145672, 1, 65537, -3145671, 1, 65537, -3145670, 1, 65537, -3145669, 1, 65537, -3145668, 1, 65537, -3145667, 1, 65537, -3145666, 1, 65537, -3145665, 1, 65537, -3145664, 1, 65537, -3145663, 1, 65537, -3145662, 1, 65537, -3145661, 1, 65537, -3145660, 1, 65537, -3145659, 1, 65537, -3145658, 1, 65537, -3145657, 1, 65537, -3145656, 1, 65537, -3145655, 1, 65537, -3145654, 1, 65537, -3145653, 1, 65537, -3145652, 1, 65537, -3145651, 1, 65537, -3145650, 1, 65537, -3145649, 1, 65537, -3145648, 1, 65537, -3145647, 1, 65537, -3145646, 1, 65537, -3145645, 1, 65537, -3145644, 1, 65537, -3145643, 1, 65537, -3145642, 1, 65537, -3145641, 1, 65537, -3014657, 2, 0, -3080192, 1, 65537, -3080191, 1, 65537, -3080190, 1, 65537, -3080166, 0, 3, -3080158, 0, 196608, -3080157, 0, 1, -3080156, 0, 1, -3080155, 0, 1, -3080154, 0, 1, -3080153, 0, 1, -3080152, 0, 1, -3080151, 0, 1, -3080150, 0, 1, -3080149, 0, 1, -3080148, 0, 1, -3080147, 1, 65537, -3080146, 1, 65537, -3080145, 1, 65537, -3080144, 1, 65537, -3080143, 1, 65537, -3080142, 1, 65537, -3080141, 1, 65537, -3080140, 1, 65537, -3080139, 1, 65537, -3080138, 1, 65537, -3080137, 1, 65537, -3080130, 1, 65537, -3080129, 1, 65537, -3080128, 1, 65537, -3080127, 1, 65537, -3080126, 1, 65537, -3080125, 1, 65537, -3080124, 1, 65537, -3080123, 1, 65537, -3080122, 1, 65537, -3080121, 1, 65537, -3080120, 1, 65537, -3080119, 1, 65537, -3080118, 1, 65537, -3080117, 1, 65537, -3080116, 1, 65537, -3080115, 1, 65537, -3080114, 1, 65537, -3080113, 1, 65537, -3080112, 1, 65537, -3080111, 1, 65537, -3080110, 1, 65537, -3080109, 1, 65537, -3080108, 1, 65537, -3080107, 1, 65537, -3080106, 1, 65537, -3080105, 1, 65537, -2949121, 2, 0, -3014656, 1, 65537, -3014655, 1, 65537, -3014654, 1, 65537, -3014630, 1, 1, -3014621, 0, 131072, -3014620, 0, 131073, -3014619, 1, 65537, -3014618, 1, 65537, -3014617, 1, 65537, -3014616, 1, 65537, -3014615, 1, 65537, -3014614, 1, 65537, -3014613, 1, 1, -3014612, 1, 65537, -3014611, 1, 65537, -3014610, 1, 65537, -3014609, 1, 65537, -3014608, 1, 65537, -3014607, 1, 65537, -3014606, 1, 65537, -3014605, 1, 65537, -3014604, 1, 65537, -3014603, 1, 65537, -3014602, 1, 65537, -3014601, 1, 65537, -3014600, 1, 65537, -3014596, 1, 65537, -3014595, 1, 65537, -3014594, 1, 65537, -3014593, 1, 65537, -3014592, 1, 65537, -3014591, 1, 65537, -3014590, 1, 65537, -3014589, 1, 65537, -3014588, 1, 65537, -3014587, 1, 65537, -3014586, 1, 65537, -3014585, 1, 65537, -3014584, 1, 65537, -3014583, 1, 65537, -3014582, 1, 65537, -3014581, 1, 65537, -3014580, 1, 65537, -3014579, 1, 65537, -3014578, 1, 65537, -3014577, 1, 65537, -3014576, 1, 65537, -3014575, 1, 65537, -3014574, 1, 65537, -3014573, 1, 65537, -3014572, 1, 65537, -3014571, 1, 65537, -3014570, 1, 65537, -3014569, 1, 65537, -2883585, 2, 0, -2949120, 1, 65537, -2949119, 1, 65537, -2949118, 1, 65537, -2949103, 1, 65537, -2949102, 1, 65537, -2949101, 1, 65537, -2949100, 1, 65537, -2949099, 1, 65537, -2949098, 1, 65537, -2949097, 1, 65537, -2949096, 1, 65537, -2949095, 1, 65537, -2949094, 1, 65537, -2949082, 1, 65537, -2949081, 1, 65537, -2949080, 1, 65537, -2949079, 1, 65537, -2949078, 1, 65537, -2949077, 1, 65537, -2949076, 1, 65537, -2949075, 1, 65537, -2949074, 1, 65537, -2949073, 1, 65537, -2949072, 1, 65537, -2949071, 1, 65537, -2949070, 1, 65537, -2949069, 1, 65537, -2949068, 1, 65537, -2949067, 1, 65537, -2949066, 1, 65537, -2949065, 1, 65537, -2949064, 1, 65537, -2949063, 1, 65537, -2949062, 1, 65537, -2949061, 1, 65537, -2949060, 1, 65537, -2949059, 1, 65537, -2949058, 1, 65537, -2949057, 1, 65537, -2949056, 1, 65537, -2949055, 1, 65537, -2949054, 1, 65537, -2949053, 1, 65537, -2949052, 1, 65537, -2949051, 1, 65537, -2949050, 1, 65537, -2949049, 1, 65537, -2949048, 1, 65537, -2949047, 1, 65537, -2949046, 1, 65537, -2949045, 1, 65537, -2949044, 1, 65537, -2949043, 1, 65537, -2949042, 1, 65537, -2949041, 1, 65537, -2949040, 1, 65537, -2949039, 1, 65537, -2949038, 1, 65537, -2949037, 1, 65537, -2949036, 1, 65537, -2949035, 1, 65537, -2949034, 1, 65537, -2949033, 1, 65537, -2949032, 1, 65537, -2818049, 2, 0, -2883584, 1, 65537, -2883583, 1, 65537, -2883582, 1, 65537, -2883563, 1, 65537, -2883562, 1, 65537, -2883561, 1, 65537, -2883545, 1, 65537, -2883544, 1, 65537, -2883537, 1, 65537, -2883536, 1, 65537, -2883535, 1, 65537, -2883534, 1, 65537, -2883533, 1, 65537, -2883531, 1, 65537, -2883530, 1, 65537, -2883528, 1, 65537, -2883527, 1, 65537, -2883526, 1, 65537, -2883525, 1, 65537, -2883524, 1, 65537, -2883523, 1, 65537, -2883522, 1, 65537, -2883521, 1, 65537, -2883520, 1, 65537, -2883519, 1, 65537, -2883518, 1, 65537, -2883517, 1, 65537, -2883516, 1, 65537, -2883515, 1, 65537, -2883514, 1, 65537, -2883513, 1, 65537, -2883512, 1, 65537, -2883511, 1, 65537, -2883510, 1, 65537, -2883509, 1, 65537, -2883508, 1, 65537, -2883507, 1, 65537, -2883506, 1, 65537, -2883505, 1, 65537, -2883504, 1, 65537, -2883503, 1, 65537, -2883502, 1, 65537, -2883501, 1, 65537, -2883500, 1, 65537, -2883499, 1, 65537, -2883498, 1, 65537, -2883497, 1, 65537, -2883496, 1, 65537, -2752513, 2, 0, -2818048, 1, 65537, -2818047, 1, 65537, -2818046, 1, 65537, -2818045, 1, 65537, -2818026, 1, 65537, -2818010, 1, 65537, -2818009, 1, 65537, -2818008, 1, 65537, -2818001, 1, 65537, -2817998, 1, 65537, -2817991, 1, 65537, -2817990, 1, 65537, -2817989, 1, 65537, -2817988, 1, 65537, -2817987, 1, 65537, -2817986, 1, 65537, -2817985, 1, 65537, -2817984, 1, 65537, -2817983, 1, 65537, -2817982, 1, 65537, -2817981, 1, 65537, -2817980, 1, 65537, -2817979, 1, 65537, -2817978, 1, 65537, -2817977, 1, 65537, -2817976, 1, 65537, -2817975, 1, 65537, -2817974, 1, 65537, -2817973, 1, 65537, -2817972, 1, 65537, -2817971, 1, 65537, -2817970, 1, 65537, -2817969, 1, 65537, -2817968, 1, 65537, -2817967, 1, 65537, -2817966, 1, 65537, -2817965, 1, 65537, -2817964, 1, 65537, -2817963, 1, 65537, -2817962, 1, 65537, -2817961, 1, 65537, -2817960, 1, 65537, -2817959, 1, 65537, -2686977, 2, 0, -2752512, 1, 65537, -2752511, 1, 65537, -2752510, 1, 65537, -2752509, 1, 65537, -2752475, 1, 65537, -2752474, 1, 65537, -2752472, 1, 65537, -2752465, 1, 65537, -2752462, 1, 65537, -2752455, 1, 65537, -2752454, 1, 65537, -2752453, 1, 65537, -2752452, 1, 65537, -2752451, 1, 65537, -2752450, 1, 65537, -2752449, 1, 65537, -2752448, 1, 65537, -2752447, 1, 65537, -2752444, 1, 65537, -2752443, 1, 65537, -2752442, 1, 65537, -2752441, 1, 65537, -2752440, 1, 65537, -2752439, 1, 65537, -2752438, 1, 65537, -2752437, 1, 65537, -2752436, 1, 65537, -2752435, 1, 65537, -2752434, 1, 65537, -2752433, 1, 65537, -2752432, 1, 65537, -2752431, 1, 65537, -2752430, 1, 65537, -2752429, 1, 65537, -2752428, 1, 65537, -2752427, 1, 65537, -2752426, 1, 65537, -2752425, 1, 65537, -2752424, 1, 65537, -2752423, 1, 65537, -2621441, 2, 0, -2686976, 1, 65537, -2686975, 1, 65537, -2686974, 1, 65537, -2686973, 1, 65537, -2686972, 1, 65537, -2686939, 1, 65537, -2686936, 1, 65537, -2686918, 1, 65537, -2686917, 1, 65537, -2686916, 1, 65537, -2686915, 1, 65537, -2686914, 1, 65537, -2686913, 1, 65537, -2686912, 1, 65537, -2686907, 1, 65537, -2686906, 1, 65537, -2686905, 1, 65537, -2686904, 1, 65537, -2686903, 1, 65537, -2686902, 1, 65537, -2686901, 1, 65537, -2686900, 1, 65537, -2686899, 1, 65537, -2686898, 1, 65537, -2686897, 1, 65537, -2686896, 1, 65537, -2686895, 1, 65537, -2686894, 1, 65537, -2686893, 1, 65537, -2686892, 1, 65537, -2686891, 1, 65537, -2686890, 1, 65537, -2686889, 1, 65537, -2686888, 1, 65537, -2686887, 1, 65537, -2555905, 2, 0, -2621440, 1, 65537, -2621439, 1, 65537, -2621438, 1, 65537, -2621437, 1, 65537, -2621436, 1, 65537, -2621435, 0, 1, -2621434, 0, 1, -2621433, 0, 1, -2621432, 0, 1, -2621431, 0, 1, -2621430, 0, 1, -2621429, 0, 1, -2621428, 0, 1, -2621427, 0, 1, -2621426, 0, 1, -2621425, 0, 1, -2621424, 0, 2, -2621418, 0, 0, -2621417, 0, 1, -2621416, 0, 1, -2621415, 0, 1, -2621414, 0, 1, -2621413, 0, 1, -2621412, 0, 1, -2621411, 0, 1, -2621410, 0, 1, -2621409, 0, 196610, -2621404, 1, 65537, -2621403, 1, 65537, -2621400, 1, 65537, -2621399, 1, 65537, -2621376, 1, 65537, -2621375, 1, 65537, -2621374, 1, 65537, -2621373, 1, 65537, -2621372, 1, 65537, -2621371, 1, 65537, -2621370, 1, 65537, -2621369, 1, 65537, -2621368, 1, 65537, -2621367, 1, 65537, -2621366, 1, 65537, -2621365, 1, 65537, -2621364, 1, 65537, -2621363, 1, 65537, -2621362, 1, 65537, -2621361, 1, 65537, -2621360, 1, 65537, -2621359, 1, 65537, -2621358, 1, 65537, -2621357, 1, 65537, -2621356, 1, 65537, -2621355, 1, 65537, -2621354, 1, 65537, -2621353, 1, 65537, -2621352, 1, 65537, -2621351, 1, 65537, -2490369, 2, 0, -2555904, 1, 65537, -2555903, 1, 65537, -2555902, 1, 65537, -2555901, 1, 65537, -2555900, 1, 65537, -2555899, 1, 65537, -2555898, 1, 65537, -2555897, 1, 65537, -2555896, 1, 65537, -2555895, 1, 65537, -2555894, 1, 65537, -2555893, 1, 65537, -2555892, 1, 65537, -2555891, 1, 65537, -2555890, 1, 65537, -2555889, 1, 65537, -2555888, 0, 65538, -2555883, 0, 196608, -2555882, 0, 65542, -2555881, 0, 131073, -2555880, 0, 131073, -2555879, 0, 131073, -2555878, 1, 65537, -2555877, 1, 65537, -2555876, 1, 65537, -2555875, 1, 65537, -2555874, 0, 131074, -2555868, 1, 65537, -2555863, 1, 65537, -2555837, 1, 65537, -2555836, 1, 65537, -2555835, 1, 65537, -2555834, 1, 65537, -2555833, 1, 65537, -2555832, 1, 65537, -2555831, 1, 65537, -2555830, 1, 65537, -2555829, 1, 65537, -2555828, 1, 65537, -2555827, 1, 65537, -2555826, 1, 65537, -2555825, 1, 65537, -2555824, 1, 65537, -2555823, 1, 65537, -2555822, 1, 65537, -2555821, 1, 65537, -2555820, 1, 65537, -2555819, 1, 65537, -2555818, 1, 65537, -2555817, 1, 65537, -2555816, 1, 65537, -2555815, 1, 65537, -2424833, 2, 0, -2490368, 1, 65537, -2490367, 1, 65537, -2490366, 1, 65537, -2490365, 1, 65537, -2490364, 1, 65537, -2490363, 1, 65537, -2490362, 1, 65537, -2490361, 1, 65537, -2490360, 1, 65537, -2490359, 1, 65537, -2490358, 1, 65537, -2490357, 1, 65537, -2490356, 1, 65537, -2490355, 1, 65537, -2490354, 1, 65537, -2490353, 1, 65537, -2490352, 0, 65541, -2490351, 0, 2, -2490342, 1, 65537, -2490341, 1, 65537, -2490340, 1, 65537, -2490339, 1, 65537, -2490332, 1, 65537, -2490327, 1, 65537, -2490326, 1, 65537, -2490299, 1, 65537, -2490298, 1, 65537, -2490297, 1, 65537, -2490296, 1, 65537, -2490295, 1, 65537, -2490294, 1, 65537, -2490293, 1, 65537, -2490292, 1, 65537, -2490291, 1, 65537, -2490290, 1, 65537, -2490289, 1, 65537, -2490288, 1, 65537, -2490287, 1, 65537, -2490286, 1, 65537, -2490285, 1, 65537, -2490284, 1, 65537, -2490283, 1, 65537, -2490282, 1, 65537, -2490281, 1, 65537, -2490280, 1, 65537, -2490279, 1, 65537, -2359297, 2, 0, -2424832, 1, 65537, -2424831, 1, 65537, -2424830, 1, 65537, -2424829, 1, 65537, -2424828, 1, 65537, -2424827, 1, 65537, -2424826, 1, 65537, -2424825, 1, 65537, -2424824, 1, 65537, -2424823, 1, 65537, -2424822, 1, 65537, -2424821, 1, 65537, -2424820, 1, 65537, -2424819, 1, 65537, -2424818, 1, 65537, -2424805, 1, 65537, -2424804, 1, 65537, -2424803, 1, 65537, -2424802, 1, 65537, -2424801, 1, 65537, -2424800, 1, 65537, -2424799, 1, 65537, -2424798, 1, 65537, -2424797, 1, 65537, -2424796, 1, 65537, -2424791, 1, 65537, -2424762, 1, 65537, -2424761, 1, 65537, -2424760, 1, 65537, -2424759, 1, 65537, -2424758, 1, 65537, -2424757, 1, 65537, -2424756, 1, 65537, -2424755, 1, 65537, -2424754, 1, 65537, -2424753, 1, 65537, -2424752, 1, 65537, -2424751, 1, 65537, -2424750, 1, 65537, -2424749, 1, 65537, -2424748, 1, 65537, -2424747, 1, 65537, -2424746, 1, 65537, -2424745, 1, 65537, -2424744, 1, 65537, -2424743, 1, 65537, -2293761, 2, 0, -2359296, 1, 65537, -2359295, 1, 65537, -2359294, 1, 65537, -2359293, 1, 65537, -2359292, 1, 65537, -2359291, 1, 65537, -2359290, 1, 65537, -2359289, 1, 65537, -2359288, 1, 65537, -2359287, 1, 65537, -2359286, 1, 65537, -2359285, 1, 65537, -2359284, 1, 65537, -2359283, 1, 65537, -2359282, 1, 65537, -2359266, 1, 65537, -2359265, 1, 65537, -2359264, 1, 65537, -2359263, 1, 65537, -2359262, 1, 65537, -2359255, 1, 65537, -2359223, 1, 65537, -2359222, 1, 65537, -2359221, 1, 65537, -2359220, 1, 65537, -2359219, 1, 65537, -2359218, 1, 65537, -2359217, 1, 65537, -2359216, 1, 65537, -2359215, 1, 65537, -2359214, 1, 65537, -2359213, 1, 65537, -2359212, 1, 65537, -2359211, 1, 65537, -2359210, 1, 65537, -2359209, 1, 65537, -2359208, 1, 65537, -2359207, 1, 65537, -2228225, 2, 0, -2293760, 1, 65537, -2293759, 1, 65537, -2293758, 1, 65537, -2293757, 1, 65537, -2293756, 1, 65537, -2293755, 1, 65537, -2293754, 1, 65537, -2293753, 1, 65537, -2293752, 1, 65537, -2293751, 1, 65537, -2293750, 1, 65537, -2293749, 1, 65537, -2293748, 1, 65537, -2293747, 1, 65537, -2293746, 1, 65537, -2293745, 0, 196609, -2293744, 0, 196609, -2293743, 0, 196609, -2293742, 0, 196609, -2293741, 0, 1, -2293740, 0, 196609, -2293739, 0, 1, -2293738, 0, 1, -2293737, 0, 1, -2293736, 0, 196610, -2293726, 1, 65537, -2293725, 1, 65537, -2293724, 1, 65537, -2293723, 1, 65537, -2293722, 1, 65537, -2293721, 1, 65537, -2293720, 1, 65537, -2293719, 1, 65537, -2293686, 1, 65537, -2293685, 1, 65537, -2293684, 1, 65537, -2293683, 1, 65537, -2293682, 1, 65537, -2293681, 1, 65537, -2293680, 1, 65537, -2293679, 1, 65537, -2293678, 1, 65537, -2293677, 1, 65537, -2293676, 1, 65537, -2293675, 1, 65537, -2293674, 1, 65537, -2293673, 1, 65537, -2293672, 1, 65537, -2293671, 1, 65537, -2162689, 2, 0, -2228224, 1, 65537, -2228223, 1, 65537, -2228222, 1, 65537, -2228221, 1, 65537, -2228220, 1, 65537, -2228219, 1, 65537, -2228218, 1, 65537, -2228217, 1, 65537, -2228216, 1, 65537, -2228215, 1, 65537, -2228214, 1, 65537, -2228213, 1, 65537, -2228212, 1, 65537, -2228211, 1, 65537, -2228205, 0, 65539, -2228203, 1, 65537, -2228202, 1, 65537, -2228201, 1, 65537, -2228148, 1, 65537, -2228147, 1, 65537, -2228146, 1, 65537, -2228145, 1, 65537, -2228144, 1, 65537, -2228143, 1, 65537, -2228142, 1, 65537, -2228141, 1, 65537, -2228140, 1, 65537, -2228139, 1, 65537, -2228138, 1, 65537, -2228137, 1, 65537, -2228136, 1, 65537, -2228135, 1, 65537, -2228134, 1, 65537, -2097153, 2, 0, -2162688, 1, 65537, -2162687, 1, 65537, -2162686, 1, 65537, -2162685, 1, 65537, -2162684, 1, 65537, -2162683, 1, 65537, -2162682, 1, 65537, -2162681, 1, 65537, -2162680, 1, 65537, -2162679, 1, 65537, -2162678, 1, 65537, -2162677, 1, 65537, -2162675, 1, 65537, -2162669, 0, 131075, -2162667, 1, 65537, -2162666, 1, 65537, -2162665, 1, 65537, -2162611, 1, 65537, -2162610, 1, 65537, -2162609, 1, 65537, -2162608, 1, 65537, -2162607, 1, 65537, -2162606, 1, 65537, -2162605, 1, 65537, -2162604, 1, 65537, -2162603, 1, 65537, -2162602, 1, 65537, -2162601, 1, 65537, -2162600, 1, 65537, -2162599, 1, 65537, -2162598, 1, 65537, -2031617, 2, 0, -2097152, 1, 65537, -2097151, 1, 65537, -2097150, 1, 65537, -2097149, 1, 65537, -2097148, 1, 65537, -2097147, 1, 65537, -2097146, 1, 65537, -2097145, 1, 65537, -2097139, 1, 65537, -2097138, 1, 65537, -2097130, 1, 65537, -2097129, 1, 65537, -2097110, 0, 196608, -2097109, 0, 196609, -2097108, 0, 196609, -2097107, 0, 196609, -2097106, 0, 196609, -2097105, 0, 196609, -2097104, 0, 2, -2097091, 0, 3, -2097080, 0, 196608, -2097079, 0, 2, -2097075, 1, 65537, -2097074, 1, 65537, -2097073, 1, 65537, -2097072, 1, 65537, -2097071, 1, 65537, -2097070, 1, 65537, -2097069, 1, 65537, -2097068, 1, 65537, -2097067, 1, 65537, -2097066, 1, 65537, -2097065, 1, 65537, -2097064, 1, 65537, -2097063, 1, 65537, -2097062, 1, 65537, -1966081, 2, 0, -2031613, 1, 65537, -2031612, 1, 65537, -2031602, 1, 65537, -2031601, 1, 65537, -2031600, 1, 65537, -2031593, 1, 65537, -2031592, 1, 65537, -2031590, 0, 196608, -2031589, 0, 1, -2031588, 0, 1, -2031587, 0, 1, -2031586, 0, 1, -2031585, 0, 1, -2031584, 0, 2, -2031568, 1, 65537, -2031555, 1, 1, -2031543, 1, 1, -2031539, 1, 65537, -2031538, 1, 65537, -2031537, 1, 65537, -2031536, 1, 65537, -2031535, 1, 65537, -2031534, 1, 65537, -2031533, 1, 65537, -2031532, 1, 65537, -2031531, 1, 65537, -2031530, 1, 65537, -2031529, 1, 65537, -2031528, 1, 65537, -2031527, 1, 65537, -2031526, 1, 65537, -2031525, 1, 65537, -1900545, 2, 0, -1966064, 1, 65537, -1966057, 1, 65537, -1966056, 1, 65537, -1966055, 1, 65537, -1966053, 0, 131075, -1966051, 0, 131075, -1966049, 0, 65536, -1966048, 1, 65537, -1966032, 1, 65537, -1966019, 1, 65537, -1966009, 1, 65537, -1966008, 1, 65537, -1966007, 1, 65537, -1966003, 1, 65537, -1966002, 1, 65537, -1966001, 1, 65537, -1966000, 1, 65537, -1965999, 1, 65537, -1965998, 1, 65537, -1965997, 1, 65537, -1965996, 1, 65537, -1965995, 1, 65537, -1965994, 1, 65537, -1965993, 1, 65537, -1965992, 1, 65537, -1965991, 1, 65537, -1965990, 1, 65537, -1965989, 1, 65537, -1835009, 2, 0, -1900528, 1, 65537, -1900527, 1, 65537, -1900526, 1, 65537, -1900525, 1, 65537, -1900524, 1, 65537, -1900523, 1, 65537, -1900522, 1, 65537, -1900521, 1, 65537, -1900520, 1, 65537, -1900519, 1, 65537, -1900518, 1, 65537, -1900513, 0, 65536, -1900512, 1, 65537, -1900511, 1, 65537, -1900510, 0, 1, -1900509, 0, 1, -1900508, 0, 1, -1900507, 0, 1, -1900506, 0, 1, -1900505, 0, 1, -1900504, 0, 1, -1900503, 0, 1, -1900502, 0, 1, -1900501, 0, 1, -1900500, 0, 196610, -1900496, 1, 65537, -1900495, 1, 65537, -1900494, 1, 65537, -1900493, 1, 65537, -1900492, 1, 65537, -1900491, 1, 65537, -1900490, 1, 65537, -1900489, 1, 65537, -1900488, 1, 65537, -1900487, 1, 65537, -1900486, 1, 65537, -1900485, 1, 65537, -1900484, 1, 65537, -1900483, 1, 65537, -1900482, 1, 65537, -1900481, 1, 65537, -1900480, 1, 65537, -1900479, 1, 65537, -1900478, 1, 65537, -1900477, 1, 65537, -1900476, 1, 65537, -1900475, 1, 65537, -1900474, 1, 65537, -1900473, 1, 65537, -1900471, 1, 65537, -1900467, 1, 65537, -1900466, 1, 65537, -1900465, 1, 65537, -1900464, 1, 65537, -1900463, 1, 65537, -1900462, 1, 65537, -1900461, 1, 65537, -1900460, 1, 65537, -1900459, 1, 65537, -1900458, 1, 65537, -1900457, 1, 65537, -1900456, 1, 65537, -1900455, 1, 65537, -1900454, 1, 65537, -1900453, 1, 65537, -1900452, 1, 65537, -1769473, 2, 0, -1834990, 1, 65537, -1834989, 1, 65537, -1834988, 1, 65537, -1834987, 1, 65537, -1834986, 1, 65537, -1834985, 1, 65537, -1834984, 1, 65537, -1834983, 1, 65537, -1834982, 1, 65537, -1834981, 1, 65537, -1834980, 1, 65537, -1834979, 1, 65537, -1834978, 1, 65537, -1834977, 1, 65537, -1834976, 1, 65537, -1834975, 1, 65537, -1834974, 1, 65537, -1834973, 1, 65537, -1834972, 1, 1, -1834971, 1, 1, -1834970, 1, 1, -1834969, 1, 1, -1834968, 1, 1, -1834967, 1, 1, -1834966, 1, 65537, -1834965, 1, 65537, -1834959, 1, 65537, -1834958, 1, 65537, -1834935, 1, 65537, -1834931, 1, 65537, -1834930, 1, 65537, -1834929, 1, 65537, -1834928, 1, 65537, -1834927, 1, 65537, -1834926, 1, 65537, -1834925, 1, 65537, -1834924, 1, 65537, -1834923, 1, 65537, -1834922, 1, 65537, -1834921, 1, 65537, -1834920, 1, 65537, -1834919, 1, 65537, -1834918, 1, 65537, -1834917, 1, 65537, -1834916, 1, 65537, -1703937, 2, 0, -1769455, 1, 65537, -1769454, 1, 65537, -1769453, 1, 65537, -1769452, 1, 65537, -1769451, 1, 65537, -1769450, 1, 65537, -1769449, 1, 65537, -1769448, 1, 65537, -1769447, 1, 65537, -1769446, 1, 65537, -1769445, 1, 65537, -1769444, 1, 65537, -1769443, 1, 65537, -1769442, 1, 65537, -1769441, 1, 65537, -1769440, 1, 65537, -1769439, 1, 65537, -1769438, 1, 65537, -1769437, 1, 65537, -1769436, 1, 65537, -1769435, 1, 65537, -1769434, 1, 65537, -1769433, 1, 65537, -1769432, 1, 65537, -1769431, 1, 65537, -1769430, 1, 65537, -1769429, 1, 65537, -1769428, 1, 65537, -1769426, 1, 65537, -1769425, 1, 65537, -1769424, 1, 65537, -1769423, 1, 65537, -1769399, 1, 65537, -1769395, 1, 65537, -1769389, 1, 65537, -1769388, 1, 65537, -1769387, 1, 65537, -1769386, 1, 65537, -1769385, 1, 65537, -1769384, 1, 65537, -1769383, 1, 65537, -1769382, 1, 65537, -1769381, 1, 65537, -1769380, 1, 65537, -1638401, 2, 0, -1703914, 1, 65537, -1703913, 1, 65537, -1703912, 1, 65537, -1703911, 1, 65537, -1703910, 1, 65537, -1703907, 1, 65537, -1703906, 1, 65537, -1703905, 1, 65537, -1703904, 1, 65537, -1703903, 1, 65537, -1703902, 1, 65537, -1703901, 1, 65537, -1703900, 1, 65537, -1703899, 1, 65537, -1703898, 1, 65537, -1703897, 1, 65537, -1703896, 1, 65537, -1703895, 1, 65537, -1703894, 1, 65537, -1703893, 1, 65537, -1703892, 1, 65537, -1703891, 1, 65537, -1703890, 1, 65537, -1703866, 1, 65537, -1703865, 1, 65537, -1703864, 1, 65537, -1703863, 1, 65537, -1703859, 1, 65537, -1703852, 1, 65537, -1703851, 1, 65537, -1703850, 1, 65537, -1703849, 1, 65537, -1703848, 1, 65537, -1703847, 1, 65537, -1703846, 1, 65537, -1703845, 1, 65537, -1703844, 1, 65537, -1572865, 2, 0, -1638371, 1, 65537, -1638370, 1, 65537, -1638369, 1, 65537, -1638368, 1, 65537, -1638367, 1, 65537, -1638366, 1, 65537, -1638365, 1, 65537, -1638364, 1, 65537, -1638363, 1, 65537, -1638362, 1, 65537, -1638361, 1, 65537, -1638360, 1, 65537, -1638359, 1, 65537, -1638358, 1, 65537, -1638357, 1, 65537, -1638356, 1, 65537, -1638334, 1, 65537, -1638333, 1, 65537, -1638332, 1, 65537, -1638331, 1, 65537, -1638327, 1, 65537, -1638323, 1, 65537, -1638322, 1, 65537, -1638321, 1, 65537, -1638320, 1, 65537, -1638319, 1, 65537, -1638318, 1, 65537, -1638317, 1, 65537, -1638316, 1, 65537, -1638315, 1, 65537, -1638314, 1, 65537, -1638313, 1, 65537, -1638312, 1, 65537, -1638311, 1, 65537, -1638310, 1, 65537, -1638309, 1, 65537, -1638308, 1, 65537, -1507329, 2, 0, -1572834, 1, 65537, -1572833, 1, 65537, -1572832, 1, 65537, -1572831, 1, 65537, -1572830, 1, 65537, -1572829, 1, 65537, -1572828, 1, 65537, -1572827, 1, 65537, -1572826, 1, 65537, -1572825, 1, 65537, -1572824, 1, 65537, -1572823, 1, 65537, -1572822, 1, 65537, -1572821, 1, 65537, -1572820, 1, 65537, -1572800, 1, 65537, -1572799, 1, 65537, -1572798, 1, 65537, -1572791, 1, 65537, -1572787, 1, 65537, -1572782, 1, 65537, -1572781, 1, 65537, -1572780, 1, 65537, -1572779, 1, 65537, -1572778, 1, 65537, -1572777, 1, 65537, -1572776, 1, 65537, -1572775, 1, 65537, -1572774, 1, 65537, -1572773, 1, 65537, -1572772, 1, 65537, -1441793, 2, 0, -1507298, 1, 65537, -1507297, 1, 65537, -1507296, 1, 65537, -1507295, 1, 65537, -1507294, 1, 65537, -1507293, 1, 65537, -1507292, 1, 65537, -1507291, 1, 65537, -1507290, 1, 65537, -1507289, 1, 65537, -1507288, 1, 65537, -1507287, 1, 65537, -1507286, 1, 65537, -1507275, 0, 196608, -1507274, 0, 1, -1507273, 0, 196609, -1507272, 0, 196609, -1507271, 0, 196610, -1507264, 1, 65537, -1507255, 1, 65537, -1507251, 1, 65537, -1507246, 1, 65537, -1507245, 1, 65537, -1507244, 1, 65537, -1507243, 1, 65537, -1507242, 1, 65537, -1507241, 1, 65537, -1507240, 1, 65537, -1507239, 1, 65537, -1507238, 1, 65537, -1507237, 1, 65537, -1507236, 1, 65537, -1507235, 1, 65537, -1376257, 2, 0, -1441761, 1, 65537, -1441760, 1, 65537, -1441759, 1, 65537, -1441758, 1, 65537, -1441757, 1, 65537, -1441756, 1, 65537, -1441755, 1, 65537, -1441754, 1, 65537, -1441753, 1, 65537, -1441752, 1, 65537, -1441751, 1, 65537, -1441738, 1, 1, -1441727, 1, 65537, -1441726, 1, 65537, -1441725, 1, 65537, -1441724, 1, 65537, -1441723, 1, 65537, -1441722, 1, 65537, -1441721, 1, 65537, -1441720, 1, 65537, -1441719, 1, 65537, -1441715, 1, 65537, -1441710, 1, 65537, -1441709, 1, 65537, -1441708, 1, 65537, -1441707, 1, 65537, -1441706, 1, 65537, -1441705, 1, 65537, -1441704, 1, 65537, -1441703, 1, 65537, -1441702, 1, 65537, -1441701, 1, 65537, -1441700, 1, 65537, -1441699, 1, 65537, -1310721, 2, 0, -1376224, 1, 65537, -1376223, 1, 65537, -1376222, 1, 65537, -1376221, 1, 65537, -1376220, 1, 65537, -1376219, 1, 65537, -1376218, 1, 65537, -1376217, 1, 65537, -1376216, 1, 65537, -1376211, 0, 0, -1376210, 0, 2, -1376204, 1, 65537, -1376203, 1, 65537, -1376202, 1, 65537, -1376185, 1, 65537, -1376184, 1, 65537, -1376183, 1, 65537, -1376179, 1, 65537, -1376178, 1, 65537, -1376177, 1, 65537, -1376176, 1, 65537, -1376175, 1, 65537, -1376174, 1, 65537, -1376173, 1, 65537, -1376172, 1, 65537, -1376171, 1, 65537, -1376170, 1, 65537, -1376169, 1, 65537, -1376168, 1, 65537, -1376167, 1, 65537, -1376166, 1, 65537, -1376165, 1, 65537, -1376164, 1, 65537, -1376163, 1, 65537, -1245185, 2, 0, -1310687, 1, 65537, -1310686, 1, 65537, -1310685, 1, 65537, -1310684, 1, 65537, -1310683, 1, 65537, -1310682, 1, 65537, -1310681, 1, 65537, -1310676, 1, 65537, -1310675, 0, 65536, -1310674, 0, 65541, -1310673, 0, 1, -1310672, 0, 1, -1310671, 0, 2, -1310653, 1, 65537, -1310652, 1, 65537, -1310651, 1, 65537, -1310650, 1, 65537, -1310649, 1, 65537, -1310648, 1, 65537, -1310647, 1, 65537, -1310643, 1, 65537, -1310639, 1, 65537, -1310638, 1, 65537, -1310637, 1, 65537, -1310636, 1, 65537, -1310635, 1, 65537, -1310634, 1, 65537, -1310633, 1, 65537, -1310632, 1, 65537, -1310631, 1, 65537, -1310630, 1, 65537, -1310629, 1, 65537, -1310628, 1, 65537, -1310627, 1, 65537, -1179649, 2, 0, -1245150, 1, 65537, -1245149, 1, 65537, -1245148, 1, 65537, -1245147, 1, 65537, -1245146, 1, 65537, -1245141, 1, 65537, -1245140, 1, 65537, -1245139, 0, 131072, -1245138, 0, 131073, -1245137, 0, 131073, -1245136, 0, 131073, -1245135, 0, 131074, -1245133, 0, 4, -1245118, 1, 65537, -1245117, 1, 65537, -1245111, 1, 65537, -1245107, 1, 65537, -1245104, 1, 65537, -1245103, 1, 65537, -1245102, 1, 65537, -1245101, 1, 65537, -1245100, 1, 65537, -1245099, 1, 65537, -1245098, 1, 65537, -1245097, 1, 65537, -1245096, 1, 65537, -1245095, 1, 65537, -1245094, 1, 65537, -1245093, 1, 65537, -1245092, 1, 65537, -1245091, 1, 65537, -1114113, 2, 0, -1179606, 1, 65537, -1179605, 1, 65537, -1179604, 1, 65537, -1179582, 1, 65537, -1179575, 1, 65537, -1179571, 1, 65537, -1179570, 1, 65537, -1179569, 1, 65537, -1179568, 1, 65537, -1179564, 1, 65537, -1179563, 1, 65537, -1179562, 1, 65537, -1179561, 1, 65537, -1179560, 1, 65537, -1179559, 1, 65537, -1179558, 1, 65537, -1179557, 1, 65537, -1179556, 1, 65537, -1179555, 1, 65537, -1048577, 2, 0, -1114071, 1, 65537, -1114070, 1, 65537, -1114069, 1, 65537, -1114047, 1, 65537, -1114046, 1, 65537, -1114045, 1, 65537, -1114044, 1, 65537, -1114043, 1, 65537, -1114042, 1, 65537, -1114041, 1, 65537, -1114040, 1, 65537, -1114039, 1, 65537, -1114028, 1, 65537, -1114027, 1, 65537, -1114026, 1, 65537, -1114025, 1, 65537, -1114024, 1, 65537, -1114023, 1, 65537, -1114022, 1, 65537, -1114021, 1, 65537, -1114020, 1, 65537, -1114019, 1, 65537, -983041, 2, 0, -1048535, 1, 65537, -1048534, 1, 65537, -1048523, 0, 196608, -1048522, 0, 196609, -1048521, 0, 196609, -1048520, 0, 1, -1048519, 0, 2, -1048501, 0, 4, -1048490, 1, 65537, -1048489, 1, 65537, -1048488, 1, 65537, -1048487, 1, 65537, -1048486, 1, 65537, -1048485, 1, 65537, -1048484, 1, 65537, -1048483, 1, 65537, -917505, 2, 0, -982999, 1, 65537, -982998, 1, 65537, -982997, 1, 65537, -982984, 1, 65537, -982983, 1, 65537, -982982, 1, 65537, -982981, 1, 65537, -982980, 1, 65537, -982979, 1, 65537, -982952, 1, 65537, -982951, 1, 65537, -982950, 1, 65537, -982949, 1, 65537, -982948, 1, 65537, -851969, 2, 0, -917463, 1, 65537, -917462, 1, 65537, -917461, 1, 65537, -917460, 1, 65537, -917448, 1, 65537, -917447, 1, 65537, -917446, 1, 65537, -917445, 1, 65537, -917444, 1, 65537, -917443, 1, 65537, -917442, 1, 65537, -917416, 1, 65537, -917415, 1, 65537, -917414, 1, 65537, -917413, 1, 65537, -917412, 1, 65537, -786433, 2, 0, -851927, 1, 65537, -851926, 1, 65537, -851925, 1, 65537, -851924, 1, 65537, -851923, 1, 65537, -851922, 1, 65537, -851913, 1, 65537, -851912, 1, 65537, -851911, 1, 65537, -851910, 1, 65537, -851909, 1, 65537, -851908, 1, 65537, -851907, 1, 65537, -851906, 1, 65537, -851905, 1, 65537, -851904, 1, 65538, -851903, 0, 65541, -851902, 0, 1, -851901, 0, 1, -851900, 0, 1, -851899, 0, 1, -851898, 0, 1, -851897, 0, 1, -851896, 0, 1, -851895, 0, 1, -851894, 0, 1, -851893, 0, 1, -851892, 0, 1, -851891, 0, 1, -851890, 0, 1, -851889, 0, 1, -851888, 0, 1, -851887, 0, 1, -851886, 0, 1, -851885, 0, 1, -851884, 0, 1, -851883, 0, 1, -851882, 0, 1, -851881, 0, 1, -851880, 1, 65537, -851879, 1, 65537, -851878, 1, 65537, -851877, 1, 65537, -720897, 2, 0, -786392, 1, 65537, -786391, 1, 65537, -786390, 1, 65537, -786389, 1, 65537, -786388, 1, 65537, -786387, 1, 65537, -786386, 1, 65537, -786385, 1, 65537, -786384, 1, 65537, -786383, 1, 65537, -786382, 1, 65537, -786381, 1, 65537, -786380, 1, 65537, -786379, 1, 65537, -786378, 1, 65537, -786377, 1, 65537, -786376, 1, 65537, -786375, 1, 65537, -786374, 1, 65537, -786373, 1, 65537, -786372, 1, 65537, -786371, 1, 65537, -786370, 1, 65537, -786369, 1, 65537, -786367, 0, 131072, -786366, 0, 131073, -786365, 0, 6, -786364, 0, 65537, -786363, 0, 65537, -786362, 0, 65537, -786361, 0, 65537, -786360, 0, 65537, -786359, 0, 65537, -786358, 0, 65537, -786357, 0, 65537, -786356, 0, 65537, -786355, 0, 65537, -786354, 0, 65537, -786353, 0, 65537, -786352, 0, 65537, -786351, 0, 65537, -786350, 0, 5, -786349, 0, 131073, -786348, 0, 131073, -786347, 0, 131073, -786346, 0, 131074, -786344, 1, 65537, -786343, 1, 65537, -786342, 1, 65537, -786341, 1, 65537, -655361, 2, 0, -720856, 1, 65537, -720855, 1, 65537, -720854, 1, 65537, -720853, 1, 65537, -720852, 1, 65537, -720851, 1, 65537, -720850, 1, 65537, -720849, 1, 65537, -720848, 1, 65537, -720847, 1, 65537, -720846, 1, 65537, -720845, 1, 65537, -720844, 1, 65537, -720843, 1, 65537, -720842, 1, 65537, -720841, 1, 65537, -720840, 1, 65537, -720839, 1, 65537, -720838, 1, 65537, -720837, 1, 65537, -720836, 1, 65537, -720835, 1, 65537, -720834, 1, 65537, -720833, 1, 65537, -720832, 1, 65537, -720829, 0, 131072, -720828, 0, 131073, -720827, 0, 131073, -720826, 0, 131073, -720825, 0, 6, -720824, 0, 65537, -720823, 0, 65537, -720822, 0, 65537, -720821, 0, 65537, -720820, 0, 65537, -720819, 0, 65537, -720818, 0, 65537, -720817, 0, 65537, -720816, 0, 65537, -720815, 0, 65537, -720814, 0, 65538, -720808, 1, 65537, -720807, 1, 65537, -720806, 1, 65537, -589825, 2, 0, -655320, 1, 65537, -655319, 1, 65537, -655318, 1, 65537, -655317, 1, 65537, -655316, 1, 65537, -655315, 1, 65537, -655314, 1, 65537, -655313, 1, 65537, -655312, 1, 65537, -655311, 1, 65537, -655310, 1, 65537, -655309, 1, 65537, -655308, 1, 65537, -655307, 1, 65537, -655306, 1, 65537, -655305, 1, 65537, -655304, 1, 65537, -655303, 1, 65537, -655302, 1, 65537, -655301, 1, 65537, -655300, 1, 65537, -655299, 1, 65537, -655298, 1, 65537, -655297, 1, 65537, -655296, 1, 65537, -655295, 1, 65537, -655289, 0, 65536, -655288, 0, 65537, -655287, 0, 65537, -655286, 0, 65537, -655285, 0, 65537, -655284, 0, 65537, -655283, 0, 65537, -655282, 0, 65537, -655281, 0, 65537, -655280, 0, 65537, -655279, 0, 65537, -655278, 0, 65541, -655277, 0, 196610, -655272, 1, 65537, -655271, 1, 65537, -655270, 1, 65537, -524289, 2, 0, -589824, 0, 196608, -589823, 0, 196609, -589822, 0, 196609, -589821, 0, 196609, -589820, 0, 196609, -589819, 0, 196609, -589818, 0, 196609, -589817, 0, 196609, -589816, 0, 196609, -589815, 0, 196609, -589814, 0, 196609, -589813, 0, 196609, -589812, 0, 196609, -589811, 0, 196610, -589784, 1, 65537, -589783, 1, 65537, -589782, 1, 65537, -589781, 1, 65537, -589780, 1, 65537, -589779, 1, 65537, -589778, 1, 65537, -589777, 1, 65537, -589776, 1, 65537, -589775, 1, 65537, -589774, 1, 65537, -589773, 1, 65537, -589772, 1, 65537, -589771, 1, 65537, -589770, 1, 65537, -589769, 1, 65537, -589768, 1, 65537, -589767, 1, 65537, -589766, 1, 65537, -589765, 1, 65537, -589764, 1, 65537, -589763, 1, 65537, -589762, 1, 65537, -589761, 1, 65537, -589760, 1, 65537, -589759, 1, 65537, -589758, 1, 65537, -589753, 0, 65536, -589752, 0, 65537, -589751, 0, 65537, -589750, 0, 65537, -589749, 0, 65537, -589748, 0, 65537, -589747, 0, 65537, -589746, 0, 65537, -589745, 0, 5, -589744, 0, 131073, -589743, 0, 131073, -589742, 0, 131074, -589736, 1, 65537, -589735, 1, 65537, -458753, 2, 0, -524248, 1, 65537, -524247, 1, 65537, -524246, 1, 65537, -524245, 1, 65537, -524244, 1, 65537, -524243, 1, 65537, -524242, 1, 65537, -524241, 1, 65537, -524240, 1, 65537, -524239, 1, 65537, -524238, 1, 65537, -524237, 1, 65537, -524236, 1, 65537, -524235, 1, 65537, -524234, 1, 65537, -524233, 1, 65537, -524232, 1, 65537, -524231, 1, 65537, -524230, 1, 65537, -524229, 1, 65537, -524228, 1, 65537, -524227, 1, 65537, -524226, 1, 65537, -524225, 1, 65537, -524224, 1, 65537, -524223, 1, 65537, -524222, 1, 65537, -524221, 1, 65537, -524217, 0, 131072, -524216, 0, 131073, -524215, 0, 131073, -524214, 0, 131073, -524213, 0, 131073, -524212, 0, 131073, -524211, 0, 131073, -524210, 0, 131073, -524209, 0, 131074, -393217, 2, 0, -458713, 1, 65537, -458712, 1, 65537, -458711, 1, 65537, -458710, 1, 65537, -458709, 1, 65537, -458708, 1, 65537, -458707, 1, 65537, -458706, 1, 65537, -458705, 1, 65537, -458704, 1, 65537, -458703, 1, 65537, -458702, 1, 65537, -458701, 1, 65537, -458700, 1, 65537, -458699, 1, 65537, -458698, 1, 65537, -458697, 1, 65537, -458696, 1, 65537, -458695, 1, 65537, -458694, 1, 65537, -458693, 1, 65537, -458692, 1, 65537, -458691, 1, 65537, -458690, 1, 65537, -458689, 1, 65537, -458688, 1, 65537, -458687, 1, 65537, -458686, 1, 65537, -458685, 1, 65537, -458684, 1, 65537, -327681, 2, 0, -393177, 1, 65537, -393176, 1, 65537, -393175, 1, 65537, -393174, 1, 65537, -393173, 1, 65537, -393172, 1, 65537, -393171, 1, 65537, -393170, 1, 65537, -393169, 1, 65537, -393168, 1, 65537, -393167, 1, 65537, -393166, 1, 65537, -393165, 1, 65537, -393164, 1, 65537, -393163, 1, 65537, -393162, 1, 65537, -393161, 1, 65537, -393160, 1, 65537, -393159, 1, 65537, -393158, 1, 65537, -393157, 1, 65537, -393156, 1, 65537, -393155, 1, 65537, -393154, 1, 65537, -393153, 1, 65537, -393152, 1, 65537, -393151, 1, 65537, -393150, 1, 65537, -393149, 1, 65537, -393148, 1, 65537, -393147, 1, 65537, -262145, 2, 0, -327642, 1, 65537, -327641, 1, 65537, -327640, 1, 65537, -327639, 1, 65537, -327638, 1, 65537, -327637, 1, 65537, -327636, 1, 65537, -327635, 1, 65537, -327634, 1, 65537, -327633, 1, 65537, -327632, 1, 65537, -327631, 1, 65537, -327630, 1, 65537, -327629, 1, 65537, -327628, 1, 65537, -327627, 1, 65537, -327626, 1, 65537, -327625, 1, 65537, -327624, 1, 65537, -327623, 1, 65537, -327622, 1, 65537, -327621, 1, 65537, -327620, 1, 65537, -327619, 1, 65537, -327618, 1, 65537, -327617, 1, 65537, -327616, 1, 65537, -327615, 1, 65537, -327614, 1, 65537, -327613, 1, 65537, -327612, 1, 65537, -327611, 1, 65537, -327610, 1, 65537, -196609, 2, 0, -262107, 1, 65537, -262106, 1, 65537, -262105, 1, 65537, -262104, 1, 65537, -262103, 1, 65537, -262102, 1, 65537, -262101, 1, 65537, -262100, 1, 65537, -262099, 1, 65537, -262098, 1, 65537, -262097, 1, 65537, -262096, 1, 65537, -262095, 1, 65537, -262094, 1, 65537, -262093, 1, 65537, -262092, 1, 65537, -262091, 1, 65537, -262090, 1, 65537, -262089, 1, 65537, -262088, 1, 65537, -262087, 1, 65537, -262086, 1, 65537, -262085, 1, 65537, -262084, 1, 65537, -262083, 1, 65537, -262082, 1, 65537, -262081, 1, 65537, -262080, 1, 65537, -262079, 1, 65537, -262078, 1, 65537, -262077, 1, 65537, -262076, 1, 65537, -262075, 1, 65537, -262074, 1, 65537, -131073, 2, 0, -196572, 1, 65537, -196571, 1, 65537, -196570, 1, 65537, -196569, 1, 65537, -196568, 1, 65537, -196567, 1, 65537, -196566, 1, 65537, -196565, 1, 65537, -196564, 1, 65537, -196563, 1, 65537, -196562, 1, 65537, -196561, 1, 65537, -196560, 1, 65537, -196559, 1, 65537, -196558, 1, 65537, -196557, 1, 65537, -196556, 1, 65537, -196555, 1, 65537, -196554, 1, 65537, -196553, 1, 65537, -196552, 1, 65537, -196551, 1, 65537, -196550, 1, 65537, -196549, 1, 65537, -196548, 1, 65537, -196547, 1, 65537, -196546, 1, 65537, -196545, 1, 65537, -196544, 1, 65537, -196543, 1, 65537, -196542, 1, 65537, -196541, 1, 65537, -196540, 1, 65537, -196539, 1, 65537, -196538, 1, 65537, -196537, 1, 65537, -65537, 2, 0, -131037, 1, 65537, -131036, 1, 65537, -131035, 1, 65537, -131034, 1, 65537, -131033, 1, 65537, -131032, 1, 65537, -131031, 1, 65537, -131030, 1, 65537, -131029, 1, 65537, -131028, 1, 65537, -131027, 1, 65537, -131026, 1, 65537, -131025, 1, 65537, -131024, 1, 65537, -131023, 1, 65537, -131022, 1, 65537, -131021, 1, 65537, -131020, 1, 65537, -131019, 1, 65537, -131018, 1, 65537, -131017, 1, 65537, -131016, 1, 65537, -131015, 1, 65537, -131014, 1, 65537, -131013, 1, 65537, -131012, 1, 65537, -131011, 1, 65537, -131010, 1, 65537, -131009, 1, 65537, -131008, 1, 65537, -131007, 1, 65537, -131006, 1, 65537, -131005, 1, 65537, -131004, 1, 65537, -131003, 1, 65537, -131002, 1, 65537, -131001, 1, 65537, -131000, 1, 65537, -1, 2, 0, -65502, 1, 65537, -65501, 1, 65537, -65500, 1, 65537, -65499, 1, 65537, -65498, 1, 65537, -65497, 1, 65537, -65496, 1, 65537, -65495, 1, 65537, -65494, 1, 65537, -65493, 1, 65537, -65492, 1, 65537, -65491, 1, 65537, -65490, 1, 65537, -65489, 1, 65537, -65488, 1, 65537, -65487, 1, 65537, -65486, 1, 65537, -65485, 1, 65537, -65484, 1, 65537, -65483, 1, 65537, -65482, 1, 65537, -65481, 1, 65537, -65480, 1, 65537, -65479, 1, 65537, -65478, 1, 65537, -65477, 1, 65537, -65476, 1, 65537, -65475, 1, 65537, -65474, 1, 65537, -65473, 1, 65537, -65472, 1, 65537, -65471, 1, 65537, -65470, 1, 65537, -65469, 1, 65537, -65468, 1, 65537, -65467, 1, 65537, -65466, 1, 65537, -65465, 1, 65537, -65464, 1, 65537, -65463, 1, 65537, 65535, 2, 0, 34, 1, 65537, 35, 1, 65537, 36, 1, 65537, 37, 1, 65537, 38, 1, 65537, 39, 1, 65537, 40, 1, 65537, 41, 1, 65537, 42, 1, 65537, 43, 1, 65537, 44, 1, 65537, 45, 1, 65537, 46, 1, 65537, 47, 1, 65537, 48, 1, 65537, 49, 1, 65537, 50, 1, 65537, 51, 1, 65537, 52, 1, 65537, 53, 1, 65537, 54, 1, 65537, 55, 1, 65537, 56, 1, 65537, 57, 1, 65537, 58, 1, 65537, 59, 1, 65537, 60, 1, 65537, 61, 1, 65537, 62, 1, 65537, 63, 1, 65537, 64, 1, 65537, 65, 1, 65537, 66, 1, 65537, 67, 1, 65537, 68, 1, 65537, 69, 1, 65537, 70, 1, 65537, 71, 1, 65537, 72, 1, 65537, 73, 1, 65537 )

[node name="PlayerStartPosition" type="Position2D" parent="."]
position = Vector2( 3616, -4288 )

[node name="Portal" parent="." instance=ExtResource( 2 )]
position = Vector2( 160, -576 )
new_scene = ExtResource( 5 )

[node name="Collectibles" type="Node2D" parent="."]

[node name="Collectable" parent="Collectibles" instance=ExtResource( 3 )]
position = Vector2( 2560, -3136 )

[node name="Collectable8" parent="Collectibles" instance=ExtResource( 3 )]
position = Vector2( 1696, -3232 )

[node name="Collectable9" parent="Collectibles" instance=ExtResource( 3 )]
position = Vector2( 1472, -3296 )

[node name="Collectable10" parent="Collectibles" instance=ExtResource( 3 )]
position = Vector2( 1184, -3328 )

[node name="Collectable18" parent="Collectibles" instance=ExtResource( 3 )]
position = Vector2( 1184, -3456 )

[node name="Collectable19" parent="Collectibles" instance=ExtResource( 3 )]
position = Vector2( 1184, -3552 )

[node name="Collectable20" parent="Collectibles" instance=ExtResource( 3 )]
position = Vector2( 672, -3232 )

[node name="Collectable21" parent="Collectibles" instance=ExtResource( 3 )]
position = Vector2( 160, -3040 )

[node name="Collectable11" parent="Collectibles" instance=ExtResource( 3 )]
position = Vector2( 1248, -2688 )

[node name="Collectable12" parent="Collectibles" instance=ExtResource( 3 )]
position = Vector2( 1248, -2496 )

[node name="Collectable13" parent="Collectibles" instance=ExtResource( 3 )]
position = Vector2( 1248, -2304 )

[node name="Collectable22" parent="Collectibles" instance=ExtResource( 3 )]
position = Vector2( 1728, -2176 )

[node name="Collectable23" parent="Collectibles" instance=ExtResource( 3 )]
position = Vector2( 2144, -2208 )

[node name="Collectable24" parent="Collectibles" instance=ExtResource( 3 )]
position = Vector2( 2272, -2144 )

[node name="Collectable25" parent="Collectibles" instance=ExtResource( 3 )]
position = Vector2( 2528, -2144 )

[node name="Collectable28" parent="Collectibles" instance=ExtResource( 3 )]
position = Vector2( 2784, -2080 )

[node name="Collectable29" parent="Collectibles" instance=ExtResource( 3 )]
position = Vector2( 3104, -2080 )

[node name="Collectable30" parent="Collectibles" instance=ExtResource( 3 )]
position = Vector2( 3328, -2176 )

[node name="Collectable33" parent="Collectibles" instance=ExtResource( 3 )]
position = Vector2( 3488, -2240 )

[node name="Collectable34" parent="Collectibles" instance=ExtResource( 3 )]
position = Vector2( 4288, -2240 )

[node name="Collectable35" parent="Collectibles" instance=ExtResource( 3 )]
position = Vector2( 3776, -2144 )

[node name="Collectable36" parent="Collectibles" instance=ExtResource( 3 )]
position = Vector2( 3936, -2080 )

[node name="Collectable37" parent="Collectibles" instance=ExtResource( 3 )]
position = Vector2( 4096, -2176 )

[node name="Collectable38" parent="Collectibles" instance=ExtResource( 3 )]
position = Vector2( 4576, -2112 )

[node name="Collectable40" parent="Collectibles" instance=ExtResource( 3 )]
position = Vector2( 4832, -2048 )

[node name="Collectable41" parent="Collectibles" instance=ExtResource( 3 )]
position = Vector2( 4832, -1792 )

[node name="Collectable42" parent="Collectibles" instance=ExtResource( 3 )]
position = Vector2( 4832, -1568 )

[node name="Collectable43" parent="Collectibles" instance=ExtResource( 3 )]
position = Vector2( 4832, -1280 )

[node name="Collectable44" parent="Collectibles" instance=ExtResource( 3 )]
position = Vector2( 4832, -1056 )

[node name="Collectable45" parent="Collectibles" instance=ExtResource( 3 )]
position = Vector2( 5248, -1120 )

[node name="Collectable46" parent="Collectibles" instance=ExtResource( 3 )]
position = Vector2( 5088, -864 )

[node name="Collectable47" parent="Collectibles" instance=ExtResource( 3 )]
position = Vector2( 4192, -864 )

[node name="Collectable48" parent="Collectibles" instance=ExtResource( 3 )]
position = Vector2( 3904, -1120 )

[node name="Collectable49" parent="Collectibles" instance=ExtResource( 3 )]
position = Vector2( 3456, -1088 )

[node name="Collectable50" parent="Collectibles" instance=ExtResource( 3 )]
position = Vector2( 3328, -1248 )

[node name="Collectable71" parent="Collectibles" instance=ExtResource( 3 )]
position = Vector2( 2752, -1344 )

[node name="Collectable72" parent="Collectibles" instance=ExtResource( 3 )]
position = Vector2( 2656, -1216 )

[node name="Collectable73" parent="Collectibles" instance=ExtResource( 3 )]
position = Vector2( 2560, -1088 )

[node name="Collectable74" parent="Collectibles" instance=ExtResource( 3 )]
position = Vector2( 2336, -1024 )

[node name="Collectable75" parent="Collectibles" instance=ExtResource( 3 )]
position = Vector2( 2048, -960 )

[node name="Collectable76" parent="Collectibles" instance=ExtResource( 3 )]
position = Vector2( 1760, -896 )

[node name="Collectable77" parent="Collectibles" instance=ExtResource( 3 )]
position = Vector2( 1440, -832 )

[node name="Collectable78" parent="Collectibles" instance=ExtResource( 3 )]
position = Vector2( 1152, -800 )

[node name="Collectable79" parent="Collectibles" instance=ExtResource( 3 )]
position = Vector2( 832, -768 )

[node name="Collectable80" parent="Collectibles" instance=ExtResource( 3 )]
position = Vector2( 576, -672 )

[node name="Collectable81" parent="Collectibles" instance=ExtResource( 3 )]
position = Vector2( 288, -608 )

[node name="Collectable52" parent="Collectibles" instance=ExtResource( 3 )]
position = Vector2( 3232, -1472 )

[node name="Collectable53" parent="Collectibles" instance=ExtResource( 3 )]
position = Vector2( 3488, -1632 )

[node name="Collectable54" parent="Collectibles" instance=ExtResource( 3 )]
position = Vector2( 3680, -1504 )

[node name="Collectable55" parent="Collectibles" instance=ExtResource( 3 )]
position = Vector2( 4160, -1568 )

[node name="Collectable56" parent="Collectibles" instance=ExtResource( 3 )]
position = Vector2( 4320, -1632 )

[node name="Collectable57" parent="Collectibles" instance=ExtResource( 3 )]
position = Vector2( 4224, -1632 )

[node name="Collectable58" parent="Collectibles" instance=ExtResource( 3 )]
position = Vector2( 4416, -1632 )

[node name="Collectable59" parent="Collectibles" instance=ExtResource( 3 )]
position = Vector2( 4576, -1696 )

[node name="Collectable60" parent="Collectibles" instance=ExtResource( 3 )]
position = Vector2( 4640, -1760 )

[node name="Collectable61" parent="Collectibles" instance=ExtResource( 3 )]
position = Vector2( 4832, -1920 )

[node name="Collectable62" parent="Collectibles" instance=ExtResource( 3 )]
position = Vector2( 4448, -1696 )

[node name="Collectable63" parent="Collectibles" instance=ExtResource( 3 )]
position = Vector2( 4288, -1696 )

[node name="Collectable64" parent="Collectibles" instance=ExtResource( 3 )]
position = Vector2( 4032, -1632 )

[node name="Collectable65" parent="Collectibles" instance=ExtResource( 3 )]
position = Vector2( 3840, -1632 )

[node name="Collectable66" parent="Collectibles" instance=ExtResource( 3 )]
position = Vector2( 4256, -1248 )

[node name="Collectable67" parent="Collectibles" instance=ExtResource( 3 )]
position = Vector2( 4448, -1312 )

[node name="Collectable68" parent="Collectibles" instance=ExtResource( 3 )]
position = Vector2( 4032, -1280 )

[node name="Collectable69" parent="Collectibles" instance=ExtResource( 3 )]
position = Vector2( 3808, -1280 )

[node name="Collectable70" parent="Collectibles" instance=ExtResource( 3 )]
position = Vector2( 3744, -1120 )

[node name="Collectable39" parent="Collectibles" instance=ExtResource( 3 )]
position = Vector2( 4448, -2176 )

[node name="Collectable31" parent="Collectibles" instance=ExtResource( 3 )]
position = Vector2( 2720, -2464 )

[node name="Collectable32" parent="Collectibles" instance=ExtResource( 3 )]
position = Vector2( 3616, -2208 )

[node name="Collectable14" parent="Collectibles" instance=ExtResource( 3 )]
position = Vector2( 480, -2624 )

[node name="Collectable16" parent="Collectibles" instance=ExtResource( 3 )]
position = Vector2( 1536, -2624 )

[node name="Collectable17" parent="Collectibles" instance=ExtResource( 3 )]
position = Vector2( 1920, -2624 )

[node name="Collectable15" parent="Collectibles" instance=ExtResource( 3 )]
position = Vector2( 960, -2624 )

[node name="Collectable6" parent="Collectibles" instance=ExtResource( 3 )]
position = Vector2( 2720, -3328 )

[node name="Collectable2" parent="Collectibles" instance=ExtResource( 3 )]
position = Vector2( 2816, -3872 )

[node name="Collectable3" parent="Collectibles" instance=ExtResource( 3 )]
position = Vector2( 2912, -3968 )

[node name="Collectable4" parent="Collectibles" instance=ExtResource( 3 )]
position = Vector2( 3072, -4064 )

[node name="Collectable7" parent="Collectibles" instance=ExtResource( 3 )]
position = Vector2( 3328, -4032 )

[node name="Collectable26" parent="Collectibles" instance=ExtResource( 3 )]
position = Vector2( 3520, -3808 )

[node name="Collectable27" parent="Collectibles" instance=ExtResource( 3 )]
position = Vector2( 3392, -3680 )

[node name="Collectable5" parent="Collectibles" instance=ExtResource( 3 )]
position = Vector2( 3680, -4000 )

[node name="Enemies" type="Node2D" parent="."]

[node name="Spider" parent="Enemies" instance=ExtResource( 4 )]
position = Vector2( 416, -3456 )

[node name="Spider2" parent="Enemies" instance=ExtResource( 4 )]
position = Vector2( 800, -3456 )

[node name="Spider3" parent="Enemies" instance=ExtResource( 4 )]
position = Vector2( 1632, -3968 )

[node name="Spider47" parent="Enemies" instance=ExtResource( 4 )]
position = Vector2( 1600, -4288 )

[node name="Spider48" parent="Enemies" instance=ExtResource( 4 )]
position = Vector2( 2016, -4032 )

[node name="Spider4" parent="Enemies" instance=ExtResource( 4 )]
position = Vector2( 2656, -3776 )

[node name="Spider5" parent="Enemies" instance=ExtResource( 4 )]
position = Vector2( 2144, -3904 )

[node name="Spider6" parent="Enemies" instance=ExtResource( 4 )]
position = Vector2( 2208, -3648 )

[node name="Spider7" parent="Enemies" instance=ExtResource( 4 )]
position = Vector2( 3936, -4288 )

[node name="Spider8" parent="Enemies" instance=ExtResource( 4 )]
position = Vector2( 3872, -3648 )

[node name="Spider9" parent="Enemies" instance=ExtResource( 4 )]
position = Vector2( 3488, -3392 )

[node name="Spider10" parent="Enemies" instance=ExtResource( 4 )]
position = Vector2( 3232, -3392 )

[node name="Spider11" parent="Enemies" instance=ExtResource( 4 )]
position = Vector2( 3360, -3136 )

[node name="Spider12" parent="Enemies" instance=ExtResource( 4 )]
position = Vector2( 3680, -2880 )

[node name="Spider13" parent="Enemies" instance=ExtResource( 4 )]
position = Vector2( 2720, -3008 )

[node name="Spider14" parent="Enemies" instance=ExtResource( 4 )]
position = Vector2( 2400, -3008 )

[node name="Spider15" parent="Enemies" instance=ExtResource( 4 )]
position = Vector2( 1376, -2880 )

[node name="Spider16" parent="Enemies" instance=ExtResource( 4 )]
position = Vector2( 736, -2560 )

[node name="Spider17" parent="Enemies" instance=ExtResource( 4 )]
position = Vector2( 416, -2560 )

[node name="Spider18" parent="Enemies" instance=ExtResource( 4 )]
position = Vector2( 1696, -2560 )

[node name="Spider19" parent="Enemies" instance=ExtResource( 4 )]
position = Vector2( 2464, -2240 )

[node name="Spider20" parent="Enemies" instance=ExtResource( 4 )]
position = Vector2( 1888, -1984 )

[node name="Spider21" parent="Enemies" instance=ExtResource( 4 )]
position = Vector2( 1248, -1856 )

[node name="Spider22" parent="Enemies" instance=ExtResource( 4 )]
position = Vector2( 2400, -1856 )

[node name="Spider23" parent="Enemies" instance=ExtResource( 4 )]
position = Vector2( 2720, -1856 )

[node name="Spider24" parent="Enemies" instance=ExtResource( 4 )]
position = Vector2( 2912, -2048 )

[node name="Spider25" parent="Enemies" instance=ExtResource( 4 )]
position = Vector2( 3232, -1856 )

[node name="Spider26" parent="Enemies" instance=ExtResource( 4 )]
position = Vector2( 3360, -1856 )

[node name="Spider27" parent="Enemies" instance=ExtResource( 4 )]
position = Vector2( 3744, -1856 )

[node name="Spider28" parent="Enemies" instance=ExtResource( 4 )]
position = Vector2( 3872, -1856 )

[node name="Spider29" parent="Enemies" instance=ExtResource( 4 )]
position = Vector2( 4128, -1856 )

[node name="Spider30" parent="Enemies" instance=ExtResource( 4 )]
position = Vector2( 4320, -1856 )

[node name="Spider31" parent="Enemies" instance=ExtResource( 4 )]
position = Vector2( 4256, -2560 )

[node name="Spider32" parent="Enemies" instance=ExtResource( 4 )]
position = Vector2( 3616, -1472 )

[node name="Spider33" parent="Enemies" instance=ExtResource( 4 )]
position = Vector2( 3072, -1280 )

[node name="Spider35" parent="Enemies" instance=ExtResource( 4 )]
position = Vector2( 3232, -768 )

[node name="Spider36" parent="Enemies" instance=ExtResource( 4 )]
position = Vector2( 3424, -768 )

[node name="Spider37" parent="Enemies" instance=ExtResource( 4 )]
position = Vector2( 3616, -1024 )

[node name="Spider38" parent="Enemies" instance=ExtResource( 4 )]
position = Vector2( 4640, -1408 )

[node name="Spider39" parent="Enemies" instance=ExtResource( 4 )]
position = Vector2( 4640, -1088 )

[node name="Spider40" parent="Enemies" instance=ExtResource( 4 )]
position = Vector2( 4576, -832 )

[node name="Spider41" parent="Enemies" instance=ExtResource( 4 )]
position = Vector2( 4320, -832 )

[node name="Spider42" parent="Enemies" instance=ExtResource( 4 )]
position = Vector2( 5024, -1600 )

[node name="Spider43" parent="Enemies" instance=ExtResource( 4 )]
position = Vector2( 5024, -1344 )

[node name="Spider44" parent="Enemies" instance=ExtResource( 4 )]
position = Vector2( 5024, -1152 )

[node name="Spider45" parent="Enemies" instance=ExtResource( 4 )]
position = Vector2( 5280, -832 )

[node name="Spider46" parent="Enemies" instance=ExtResource( 4 )]
position = Vector2( 5536, -832 )

[node name="Checkpoint" parent="." instance=ExtResource( 6 )]
position = Vector2( 1504, -2240 )

[node name="Checkpoint2" parent="." instance=ExtResource( 6 )]
position = Vector2( 4608, -2048 )

[node name="Checkpoint3" parent="." instance=ExtResource( 6 )]
position = Vector2( 2912, -1344 )
