[gd_resource type="TileSet" load_steps=33 format=2]

[ext_resource path="res://assets/grass-tileset-hexenmapper.png" type="Texture" id=1]
[ext_resource path="res://assets/prototype-tileset.png" type="Texture" id=2]

[sub_resource type="ConvexPolygonShape2D" id=1]
points = PoolVector2Array( 64, 64, 0, 64, 0, 0, 64, 0 )

[sub_resource type="ConvexPolygonShape2D" id=2]
points = PoolVector2Array( 64, 64, 0, 64, 0, 0, 64, 0 )

[sub_resource type="ConvexPolygonShape2D" id=3]
points = PoolVector2Array( 64, 64, 0, 64, 0, 0, 64, 0 )

[sub_resource type="ConvexPolygonShape2D" id=4]
points = PoolVector2Array( 64, 64, 0, 64, 0, 0, 64, 0 )

[sub_resource type="ConvexPolygonShape2D" id=5]
points = PoolVector2Array( 64, 64, 0, 64, 0, 0, 64, 0 )

[sub_resource type="ConvexPolygonShape2D" id=6]
points = PoolVector2Array( 64, 64, 0, 64, 0, 0, 64, 0 )

[sub_resource type="ConvexPolygonShape2D" id=7]
points = PoolVector2Array( 64, 64, 0, 64, 0, 0, 64, 0 )

[sub_resource type="ConvexPolygonShape2D" id=8]
points = PoolVector2Array( 64, 64, 0, 64, 0, 0, 64, 0 )

[sub_resource type="ConvexPolygonShape2D" id=9]
points = PoolVector2Array( 64, 64, 0, 64, 0, 0, 64, 0 )

[sub_resource type="ConvexPolygonShape2D" id=10]
points = PoolVector2Array( 64, 64, 0, 64, 0, 0, 64, 0 )

[sub_resource type="ConvexPolygonShape2D" id=11]
points = PoolVector2Array( 64, 64, 0, 64, 0, 0, 64, 0 )

[sub_resource type="ConvexPolygonShape2D" id=12]
points = PoolVector2Array( 64, 64, 0, 64, 0, 0, 64, 0 )

[sub_resource type="ConvexPolygonShape2D" id=13]
points = PoolVector2Array( 64, 64, 0, 64, 0, 0, 64, 0 )

[sub_resource type="ConvexPolygonShape2D" id=14]
points = PoolVector2Array( 64, 64, 0, 64, 0, 0, 64, 0 )

[sub_resource type="ConvexPolygonShape2D" id=15]
points = PoolVector2Array( 64, 64, 0, 64, 0, 0, 64, 0 )

[sub_resource type="ConvexPolygonShape2D" id=16]
points = PoolVector2Array( 64, 64, 0, 64, 0, 0, 64, 0 )

[sub_resource type="ConvexPolygonShape2D" id=17]
points = PoolVector2Array( 64, 64, 0, 64, 0, 0, 64, 0 )

[sub_resource type="ConvexPolygonShape2D" id=18]
points = PoolVector2Array( 64, 64, 0, 64, 0, 0, 64, 0 )

[sub_resource type="ConvexPolygonShape2D" id=19]
points = PoolVector2Array( 64, 64, 0, 64, 0, 0, 64, 0 )

[sub_resource type="ConvexPolygonShape2D" id=20]
points = PoolVector2Array( 64, 64, 0, 64, 0, 0, 64, 0 )

[sub_resource type="ConvexPolygonShape2D" id=21]
points = PoolVector2Array( 64, 64, 0, 64, 0, 0, 64, 0 )

[sub_resource type="ConvexPolygonShape2D" id=22]
points = PoolVector2Array( 64, 64, 0, 64, 0, 0, 64, 0 )

[sub_resource type="ConvexPolygonShape2D" id=23]
points = PoolVector2Array( 64, 64, 0, 64, 0, 0, 64, 0 )

[sub_resource type="ConvexPolygonShape2D" id=24]
points = PoolVector2Array( 0, 0, 64, 0, 64, 64, 0, 64 )

[sub_resource type="ConvexPolygonShape2D" id=25]
points = PoolVector2Array( 64, 64, 0, 64, 0, 0, 64, 0 )

[sub_resource type="ConvexPolygonShape2D" id=26]
points = PoolVector2Array( 64, 64, 0, 64, 0, 0, 64, 0 )

[sub_resource type="ConvexPolygonShape2D" id=27]
points = PoolVector2Array( 64, 64, 0, 64, 0, 0, 64, 0 )

[sub_resource type="ConvexPolygonShape2D" id=28]
points = PoolVector2Array( 64, 64, 0, 64, 0, 0, 64, 0 )

[sub_resource type="ConvexPolygonShape2D" id=29]
points = PoolVector2Array( 64, 64, 0, 64, 0, 0, 64, 0 )

[sub_resource type="ConvexPolygonShape2D" id=30]
points = PoolVector2Array( 64, 64, 0, 64, 0, 0, 64, 0 )

[resource]
0/name = "Grass"
0/texture = ExtResource( 1 )
0/tex_offset = Vector2( 0, 0 )
0/modulate = Color( 1, 1, 1, 1 )
0/region = Rect2( 0, 0, 448, 256 )
0/tile_mode = 1
0/autotile/bitmask_mode = 1
0/autotile/bitmask_flags = [ Vector2( 0, 0 ), 432, Vector2( 0, 1 ), 438, Vector2( 0, 2 ), 54, Vector2( 0, 3 ), 48, Vector2( 1, 0 ), 504, Vector2( 1, 1 ), 511, Vector2( 1, 2 ), 63, Vector2( 1, 3 ), 56, Vector2( 2, 0 ), 216, Vector2( 2, 1 ), 219, Vector2( 2, 2 ), 27, Vector2( 2, 3 ), 24, Vector2( 3, 0 ), 144, Vector2( 3, 1 ), 146, Vector2( 3, 2 ), 18, Vector2( 4, 0 ), 16, Vector2( 5, 0 ), 255, Vector2( 5, 1 ), 507, Vector2( 6, 0 ), 447, Vector2( 6, 1 ), 510 ]
0/autotile/icon_coordinate = Vector2( 0, 0 )
0/autotile/tile_size = Vector2( 64, 64 )
0/autotile/spacing = 0
0/autotile/occluder_map = [  ]
0/autotile/navpoly_map = [  ]
0/autotile/priority_map = [  ]
0/autotile/z_index_map = [  ]
0/occluder_offset = Vector2( 0, 0 )
0/navigation_offset = Vector2( 0, 0 )
0/shape_offset = Vector2( 0, 0 )
0/shape_transform = Transform2D( 1, 0, 0, 1, 0, 0 )
0/shape = SubResource( 1 )
0/shape_one_way = false
0/shape_one_way_margin = 1.0
0/shapes = [ {
"autotile_coord": Vector2( 1, 2 ),
"one_way": false,
"one_way_margin": 1.0,
"shape": SubResource( 1 ),
"shape_transform": Transform2D( 1, 0, 0, 1, 0, 0 )
}, {
"autotile_coord": Vector2( 0, 0 ),
"one_way": false,
"one_way_margin": 1.0,
"shape": SubResource( 2 ),
"shape_transform": Transform2D( 1, 0, 0, 1, 0, 0 )
}, {
"autotile_coord": Vector2( 1, 0 ),
"one_way": false,
"one_way_margin": 1.0,
"shape": SubResource( 3 ),
"shape_transform": Transform2D( 1, 0, 0, 1, 0, 0 )
}, {
"autotile_coord": Vector2( 2, 0 ),
"one_way": false,
"one_way_margin": 1.0,
"shape": SubResource( 4 ),
"shape_transform": Transform2D( 1, 0, 0, 1, 0, 0 )
}, {
"autotile_coord": Vector2( 3, 0 ),
"one_way": false,
"one_way_margin": 1.0,
"shape": SubResource( 5 ),
"shape_transform": Transform2D( 1, 0, 0, 1, 0, 0 )
}, {
"autotile_coord": Vector2( 4, 0 ),
"one_way": false,
"one_way_margin": 1.0,
"shape": SubResource( 6 ),
"shape_transform": Transform2D( 1, 0, 0, 1, 0, 0 )
}, {
"autotile_coord": Vector2( 5, 0 ),
"one_way": false,
"one_way_margin": 1.0,
"shape": SubResource( 7 ),
"shape_transform": Transform2D( 1, 0, 0, 1, 0, 0 )
}, {
"autotile_coord": Vector2( 6, 0 ),
"one_way": false,
"one_way_margin": 1.0,
"shape": SubResource( 8 ),
"shape_transform": Transform2D( 1, 0, 0, 1, 0, 0 )
}, {
"autotile_coord": Vector2( 6, 1 ),
"one_way": false,
"one_way_margin": 1.0,
"shape": SubResource( 9 ),
"shape_transform": Transform2D( 1, 0, 0, 1, 0, 0 )
}, {
"autotile_coord": Vector2( 5, 1 ),
"one_way": false,
"one_way_margin": 1.0,
"shape": SubResource( 10 ),
"shape_transform": Transform2D( 1, 0, 0, 1, 0, 0 )
}, {
"autotile_coord": Vector2( 3, 1 ),
"one_way": false,
"one_way_margin": 1.0,
"shape": SubResource( 11 ),
"shape_transform": Transform2D( 1, 0, 0, 1, 0, 0 )
}, {
"autotile_coord": Vector2( 2, 1 ),
"one_way": false,
"one_way_margin": 1.0,
"shape": SubResource( 12 ),
"shape_transform": Transform2D( 1, 0, 0, 1, 0, 0 )
}, {
"autotile_coord": Vector2( 1, 1 ),
"one_way": false,
"one_way_margin": 1.0,
"shape": SubResource( 13 ),
"shape_transform": Transform2D( 1, 0, 0, 1, 0, 0 )
}, {
"autotile_coord": Vector2( 0, 1 ),
"one_way": false,
"one_way_margin": 1.0,
"shape": SubResource( 14 ),
"shape_transform": Transform2D( 1, 0, 0, 1, 0, 0 )
}, {
"autotile_coord": Vector2( 0, 2 ),
"one_way": false,
"one_way_margin": 1.0,
"shape": SubResource( 15 ),
"shape_transform": Transform2D( 1, 0, 0, 1, 0, 0 )
}, {
"autotile_coord": Vector2( 2, 2 ),
"one_way": false,
"one_way_margin": 1.0,
"shape": SubResource( 16 ),
"shape_transform": Transform2D( 1, 0, 0, 1, 0, 0 )
}, {
"autotile_coord": Vector2( 3, 2 ),
"one_way": false,
"one_way_margin": 1.0,
"shape": SubResource( 17 ),
"shape_transform": Transform2D( 1, 0, 0, 1, 0, 0 )
}, {
"autotile_coord": Vector2( 0, 3 ),
"one_way": false,
"one_way_margin": 1.0,
"shape": SubResource( 18 ),
"shape_transform": Transform2D( 1, 0, 0, 1, 0, 0 )
}, {
"autotile_coord": Vector2( 1, 3 ),
"one_way": false,
"one_way_margin": 1.0,
"shape": SubResource( 19 ),
"shape_transform": Transform2D( 1, 0, 0, 1, 0, 0 )
}, {
"autotile_coord": Vector2( 2, 3 ),
"one_way": false,
"one_way_margin": 1.0,
"shape": SubResource( 20 ),
"shape_transform": Transform2D( 1, 0, 0, 1, 0, 0 )
} ]
0/z_index = 0
1/name = "Rock"
1/texture = ExtResource( 1 )
1/tex_offset = Vector2( 0, 0 )
1/modulate = Color( 1, 1, 1, 1 )
1/region = Rect2( 64, 320, 192, 128 )
1/tile_mode = 1
1/autotile/bitmask_mode = 1
1/autotile/bitmask_flags = [ Vector2( 0, 0 ), 256, Vector2( 0, 1 ), 292, Vector2( 1, 0 ), 448, Vector2( 1, 1 ), 511, Vector2( 2, 0 ), 64, Vector2( 2, 1 ), 73 ]
1/autotile/icon_coordinate = Vector2( 0, 0 )
1/autotile/tile_size = Vector2( 64, 64 )
1/autotile/spacing = 0
1/autotile/occluder_map = [  ]
1/autotile/navpoly_map = [  ]
1/autotile/priority_map = [  ]
1/autotile/z_index_map = [  ]
1/occluder_offset = Vector2( 0, 0 )
1/navigation_offset = Vector2( 0, 0 )
1/shape_offset = Vector2( 0, 0 )
1/shape_transform = Transform2D( 1, 0, 0, 1, 0, 0 )
1/shape = SubResource( 21 )
1/shape_one_way = false
1/shape_one_way_margin = 1.0
1/shapes = [ {
"autotile_coord": Vector2( 1, 0 ),
"one_way": false,
"one_way_margin": 1.0,
"shape": SubResource( 21 ),
"shape_transform": Transform2D( 1, 0, 0, 1, 0, 0 )
}, {
"autotile_coord": Vector2( 2, 0 ),
"one_way": false,
"one_way_margin": 1.0,
"shape": SubResource( 22 ),
"shape_transform": Transform2D( 1, 0, 0, 1, 0, 0 )
}, {
"autotile_coord": Vector2( 0, 0 ),
"one_way": false,
"one_way_margin": 1.0,
"shape": SubResource( 23 ),
"shape_transform": Transform2D( 1, 0, 0, 1, 0, 0 )
}, {
"autotile_coord": Vector2( 0, 1 ),
"one_way": false,
"one_way_margin": 1.0,
"shape": SubResource( 24 ),
"shape_transform": Transform2D( 1, 0, 0, 1, 0, 0 )
}, {
"autotile_coord": Vector2( 1, 1 ),
"one_way": false,
"one_way_margin": 1.0,
"shape": SubResource( 25 ),
"shape_transform": Transform2D( 1, 0, 0, 1, 0, 0 )
}, {
"autotile_coord": Vector2( 2, 1 ),
"one_way": false,
"one_way_margin": 1.0,
"shape": SubResource( 26 ),
"shape_transform": Transform2D( 1, 0, 0, 1, 0, 0 )
} ]
1/z_index = 0
2/name = "Black"
2/texture = ExtResource( 2 )
2/tex_offset = Vector2( 0, 0 )
2/modulate = Color( 1, 1, 1, 1 )
2/region = Rect2( 0, 0, 64, 64 )
2/tile_mode = 0
2/occluder_offset = Vector2( 0, 0 )
2/navigation_offset = Vector2( 0, 0 )
2/shape_offset = Vector2( 0, 0 )
2/shape_transform = Transform2D( 1, 0, 0, 1, 0, 0 )
2/shape = SubResource( 27 )
2/shape_one_way = false
2/shape_one_way_margin = 1.0
2/shapes = [ {
"autotile_coord": Vector2( 0, 0 ),
"one_way": false,
"one_way_margin": 1.0,
"shape": SubResource( 27 ),
"shape_transform": Transform2D( 1, 0, 0, 1, 0, 0 )
} ]
2/z_index = 0
3/name = "Green"
3/texture = ExtResource( 2 )
3/tex_offset = Vector2( 0, 0 )
3/modulate = Color( 1, 1, 1, 1 )
3/region = Rect2( 64, 0, 64, 64 )
3/tile_mode = 0
3/occluder_offset = Vector2( 0, 0 )
3/navigation_offset = Vector2( 0, 0 )
3/shape_offset = Vector2( 0, 0 )
3/shape_transform = Transform2D( 1, 0, 0, 1, 0, 0 )
3/shape = SubResource( 28 )
3/shape_one_way = false
3/shape_one_way_margin = 1.0
3/shapes = [ {
"autotile_coord": Vector2( 0, 0 ),
"one_way": false,
"one_way_margin": 1.0,
"shape": SubResource( 28 ),
"shape_transform": Transform2D( 1, 0, 0, 1, 0, 0 )
} ]
3/z_index = 0
4/name = "Red"
4/texture = ExtResource( 2 )
4/tex_offset = Vector2( 0, 0 )
4/modulate = Color( 1, 1, 1, 1 )
4/region = Rect2( 64, 64, 64, 64 )
4/tile_mode = 0
4/occluder_offset = Vector2( 0, 0 )
4/navigation_offset = Vector2( 0, 0 )
4/shape_offset = Vector2( 0, 0 )
4/shape_transform = Transform2D( 1, 0, 0, 1, 0, 0 )
4/shape = SubResource( 29 )
4/shape_one_way = false
4/shape_one_way_margin = 1.0
4/shapes = [ {
"autotile_coord": Vector2( 0, 0 ),
"one_way": false,
"one_way_margin": 1.0,
"shape": SubResource( 29 ),
"shape_transform": Transform2D( 1, 0, 0, 1, 0, 0 )
} ]
4/z_index = 0
5/name = "Blue"
5/texture = ExtResource( 2 )
5/tex_offset = Vector2( 0, 0 )
5/modulate = Color( 1, 1, 1, 1 )
5/region = Rect2( 0, 64, 64, 64 )
5/tile_mode = 0
5/occluder_offset = Vector2( 0, 0 )
5/navigation_offset = Vector2( 0, 0 )
5/shape_offset = Vector2( 0, 0 )
5/shape_transform = Transform2D( 1, 0, 0, 1, 0, 0 )
5/shape = SubResource( 30 )
5/shape_one_way = false
5/shape_one_way_margin = 1.0
5/shapes = [ {
"autotile_coord": Vector2( 0, 0 ),
"one_way": false,
"one_way_margin": 1.0,
"shape": SubResource( 30 ),
"shape_transform": Transform2D( 1, 0, 0, 1, 0, 0 )
} ]
5/z_index = 0
