[gd_scene load_steps=6 format=2]

[ext_resource path="res://ui/theme.tres" type="Theme" id=1]
[ext_resource path="res://assets/m5x7.ttf" type="DynamicFontData" id=2]
[ext_resource path="res://ui/HUD.gd" type="Script" id=3]
[ext_resource path="res://assets/messages.png" type="Texture" id=4]

[sub_resource type="DynamicFont" id=1]
size = 48
outline_size = 3
outline_color = Color( 0, 0, 0, 1 )
font_data = ExtResource( 2 )

[node name="HUD" type="Control"]
anchor_right = 1.0
anchor_bottom = 1.0
theme = ExtResource( 1 )
script = ExtResource( 3 )
__meta__ = {
"_edit_use_anchors_": false
}

[node name="CollectiblesContainer" type="Control" parent="."]
anchor_left = 1.0
anchor_right = 1.0
margin_left = -78.0
margin_top = 10.0
margin_right = -8.0
margin_bottom = 40.0

[node name="CollectiblesCountLabel" type="Label" parent="CollectiblesContainer"]
anchor_top = 0.5
anchor_bottom = 0.5
margin_top = -19.0
margin_right = 18.0
margin_bottom = 19.0
grow_horizontal = 0
custom_fonts/font = SubResource( 1 )
text = "0"

[node name="Control" type="Control" parent="CollectiblesContainer"]
anchor_left = 1.0
anchor_top = 0.5
anchor_right = 1.0
anchor_bottom = 0.5
margin_left = -34.0
margin_top = -19.0
margin_bottom = 19.0
rect_min_size = Vector2( 34, 34 )
__meta__ = {
"_edit_use_anchors_": false
}

[node name="Sprite" type="Sprite" parent="CollectiblesContainer/Control"]
position = Vector2( 0, 3 )
texture = ExtResource( 4 )
centered = false
region_enabled = true
region_rect = Rect2( 79, 143, 34, 34 )
